#DataThief /archeops/lacroix/Desktop/Simu-absorption.png jeudi 7-juil.-2016 10:48:49 AM
0.0213, 0.2206
0.0215, 0.2275
0.0218, 0.2346
0.0221, 0.242
0.0224, 0.2495
0.0227, 0.2495
0.023, 0.2572
0.0233, 0.2654
0.0236, 0.2737
0.0239, 0.2822
0.0242, 0.2911
0.0246, 0.291
0.0249, 0.3001
0.0252, 0.3094
0.0255, 0.3192
0.0259, 0.3192
0.0262, 0.3292
0.0266, 0.3395
0.0269, 0.3501
0.0273, 0.3501
0.0276, 0.361
0.028, 0.3723
0.0284, 0.3839
0.0288, 0.3839
0.0291, 0.3959
0.0295, 0.4083
0.0299, 0.4083
0.0303, 0.4211
0.0307, 0.4342
0.0311, 0.4342
0.0315, 0.4478
0.0319, 0.4618
0.0324, 0.4618
0.0328, 0.4762
0.0332, 0.491
0.0337, 0.491
0.0341, 0.5064
0.0346, 0.5223
0.035, 0.5386
0.0355, 0.5386
0.0359, 0.5554
0.0364, 0.5728
0.0369, 0.5728
0.0374, 0.5907
0.0379, 0.6091
0.0384, 0.6091
0.0389, 0.628
0.0394, 0.6478
0.0399, 0.6478
0.0405, 0.668
0.041, 0.6888
0.0415, 0.6888
0.0421, 0.7104
0.0426, 0.7326
0.0432, 0.7326
0.0438, 0.7555
0.0444, 0.7555
0.045, 0.7791
0.0455, 0.8034
0.0461, 0.8034
0.0468, 0.8285
0.0474, 0.8544
0.048, 0.8544
0.0486, 0.8811
0.0493, 0.9087
0.0499, 0.9085
0.0506, 0.937
0.0513, 0.9663
0.0519, 0.9663
0.0526, 0.9965
0.0533, 1.0277
0.054, 1.0276
0.0547, 1.0597
0.0555, 1.0929
0.0562, 1.0928
0.0569, 1.127
0.0577, 1.1622
0.0585, 1.1622
0.0592, 1.1985
0.06, 1.236
0.0608, 1.236
0.0616, 1.2746
0.0624, 1.3145
0.0633, 1.3144
0.0641, 1.3555
0.065, 1.3554
0.0658, 1.3978
0.0667, 1.4415
0.0676, 1.4415
0.0685, 1.4865
0.0694, 1.533
0.0703, 1.5329
0.0712, 1.5809
0.0722, 1.6303
0.0731, 1.6301
0.0741, 1.6812
0.0751, 1.7338
0.076, 1.7337
0.0771, 1.7879
0.0781, 1.8437
0.0791, 1.8437
0.0802, 1.9014
0.0812, 1.9013
0.0823, 1.9607
0.0834, 2.022
0.0845, 2.0219
0.0856, 2.0852
0.0867, 2.1504
0.0879, 2.1503
0.089, 2.2175
0.0902, 2.2869
0.0914, 2.2867
0.0926, 2.3582
0.0937, 2.432
0.0951, 2.4319
0.0963, 2.5079
0.0976, 2.5863
0.0989, 2.5862
0.1002, 2.6671
0.1015, 2.7505
0.1029, 2.7504
0.1043, 2.8364
0.1056, 2.8362
0.107, 2.9249
0.1084, 3.0164
0.1099, 3.0162
0.1113, 3.1105
0.1128, 3.1104
0.1143, 3.2077
0.1158, 3.308
0.1174, 3.3078
0.1189, 3.4112
0.1205, 3.4111
0.1221, 3.5177
0.1237, 3.6277
0.1253, 3.6276
0.127, 3.741
0.1287, 3.7408
0.1304, 3.8578
0.132, 3.9784
0.1338, 3.9782
0.1356, 4.1026
0.1374, 4.1024
0.1392, 4.2307
0.1411, 4.363
0.1429, 4.3628
0.1448, 4.4992
0.1467, 4.499
0.1487, 4.6397
0.1506, 4.7848
0.1526, 4.7845
0.1547, 4.9341
0.1567, 4.9339
0.1588, 5.0882
0.1609, 5.088
0.163, 5.2469
0.1652, 5.2468
0.1674, 5.4109
0.1696, 5.58
0.1718, 5.5798
0.1741, 5.7543
0.1764, 5.754
0.1787, 5.9339
0.1811, 5.9336
0.1835, 6.1192
0.1859, 6.1189
0.1884, 6.3102
0.1909, 6.3099
0.1934, 6.5072
0.196, 6.5069
0.1985, 6.7104
0.2012, 6.7101
0.2038, 6.9199
0.2065, 6.9196
0.2093, 7.1359
0.212, 7.1356
0.2149, 7.3587
0.2177, 7.3584
0.2206, 7.5885
0.2235, 7.588
0.2265, 7.8254
0.2295, 7.825
0.2325, 8.0697
0.2356, 8.0693
0.2387, 8.3216
0.2418, 8.3212
0.245, 8.5814
0.2483, 8.581
0.2516, 8.5806
0.2549, 8.8489
0.2583, 8.8485
0.2617, 9.1252
0.2652, 9.1248
0.2687, 9.4101
0.2722, 9.4096
0.2758, 9.7039
0.2795, 9.7034
0.2832, 9.7029
0.2869, 10.0064
0.2907, 10.0059
0.2946, 10.3188
0.2985, 10.3183
0.3024, 10.3178
0.3064, 10.6404
0.3105, 10.6399
0.3146, 10.9726
0.3188, 10.9721
0.323, 10.9716
0.3273, 11.3146
0.3316, 11.3141
0.336, 11.6679
0.3404, 11.6673
0.345, 11.6667
0.3495, 12.0316
0.3542, 12.031
0.3588, 12.0304
0.3636, 12.4066
0.3684, 12.406
0.3733, 12.4054
0.3782, 12.7934
0.3832, 12.7927
0.3883, 13.1928
0.3934, 13.1921
0.3987, 13.1915
0.4039, 13.1909
0.4093, 13.6034
0.4147, 13.6027
0.4202, 13.6021
0.4258, 14.0274
0.4314, 14.0267
0.4371, 14.0261
0.4429, 14.4646
0.4487, 14.464
0.4546, 14.4633
0.4607, 14.9155
0.4668, 14.9148
0.4729, 14.9141
0.4793, 15.3805
0.4856, 15.3797
0.4921, 15.379
0.4986, 15.3783
0.5051, 15.8591
0.5119, 15.8584
0.5186, 15.8576
0.5255, 15.8569
0.5325, 16.3527
0.5394, 16.3519
0.5467, 16.3511
0.5539, 16.8624
0.5612, 16.8616
0.5687, 16.8608
0.5762, 16.8599
0.5838, 17.3872
0.5916, 17.3864
0.5994, 17.3856
0.6073, 17.9292
0.6154, 17.9284
0.6235, 17.9275
0.6318, 17.9266
0.6401, 18.4872
0.6486, 18.4863
0.6572, 18.4854
0.6659, 19.0635
0.6747, 19.0626
0.6837, 19.0617
0.6926, 19.0608
0.7019, 19.6568
0.7112, 19.6558
0.7206, 19.6549
0.7302, 20.2695
0.7398, 20.2685
0.7496, 20.2676
0.7596, 20.2666
0.7696, 20.9003
0.7798, 20.8993
0.7901, 20.8982
0.8006, 21.5518
0.8112, 21.5508
0.8218, 21.5497
0.8328, 21.5487
0.8437, 22.2226
0.855, 22.2215
0.8664, 22.2204
0.8778, 22.9153
0.8894, 22.9142
0.9012, 22.9131
0.9131, 23.6296
0.9252, 23.6284
0.9375, 23.6273
0.9499, 24.366
0.9625, 24.365
0.9752, 24.3638
0.9881, 25.1256
1.0012, 25.1245
1.0145, 25.1233
1.0279, 25.9088
1.0415, 25.9076
1.0553, 25.9064
1.0693, 26.7165
1.0835, 26.7151
1.0977, 26.7139
1.1123, 27.5492
1.1271, 27.5479
1.142, 28.4093
1.1571, 28.408
1.1724, 28.4066
1.1879, 29.2949
1.2037, 29.2934
1.2196, 29.2921
1.2358, 30.2081
1.2521, 30.2066
1.2687, 30.2052
1.2854, 31.1497
1.3025, 31.1482
1.3197, 32.1222
1.3372, 32.1207
1.355, 32.1191
1.3729, 33.1235
1.3911, 33.1219
1.4095, 34.1576
1.4281, 34.156
1.4471, 34.1544
1.4662, 35.2223
1.4856, 35.2207
1.5053, 36.322
1.5252, 36.3203
1.5453, 36.3185
1.5659, 37.4542
1.5866, 37.4524
1.6076, 38.6235
1.6289, 38.6217
1.6503, 39.8294
1.6723, 39.8275
1.6944, 41.0729
1.7168, 41.0709
1.7396, 42.3552
1.7626, 42.3532
1.786, 42.3511
1.8096, 43.6754
1.8336, 43.6734
1.8578, 45.039
1.8824, 45.0369
1.9073, 46.4451
1.9325, 46.4429
1.9581, 47.8952
1.9841, 47.8929
2.0103, 49.3905
2.0369, 49.3881
2.0639, 50.9325
2.0912, 50.9301
2.1189, 52.5226
2.147, 52.5201
2.1753, 54.1623
2.2041, 55.8559
2.2333, 55.8534
2.2628, 57.5998
2.2928, 57.5971
2.3231, 59.3982
2.3538, 59.3953
2.385, 61.2526
2.4166, 61.2497
2.4485, 63.1649
2.4809, 63.1619
2.5139, 65.137
2.5471, 67.1738
2.5808, 67.1706
2.615, 69.271
2.6496, 69.2677
2.6846, 71.4336
2.7201, 73.6673
2.7562, 73.6638
2.7926, 75.9673
2.8296, 75.9636
2.867, 78.339
2.9049, 80.7886
2.9434, 80.7848
2.9824, 83.3109
3.0219, 83.3069
3.0618, 85.9119
3.1023, 88.5983
3.1434, 88.5941
3.185, 91.3644
3.2271, 94.2213
3.2699, 94.2168
3.3131, 97.1629
3.3569, 100.2012
3.4014, 100.1964
3.4463, 103.3295
3.4919, 106.5606
3.5382, 106.5554
3.585, 109.8874
3.6324, 113.3235
3.6804, 116.8672
3.7292, 116.8616
3.7785, 120.5158
3.8284, 124.2843
3.879, 128.1706
3.9304, 128.1645
3.9824, 132.1721
4.0351, 136.3051
4.0885, 136.2986
4.1426, 140.5606
4.1974, 144.9559
4.2529, 149.4886
4.3091, 154.163
4.3662, 154.1557
4.4239, 158.976
4.4824, 163.9472
4.5417, 169.0737
4.6017, 174.3606
4.6625, 179.8128
4.7243, 179.8042
4.7868, 185.4266
4.85, 191.2248
4.9142, 197.2043
4.9792, 203.3708
5.045, 209.7301
5.1118, 209.7201
5.1795, 216.278
5.2479, 223.0409
5.3173, 230.0153
5.3876, 237.2078
5.4588, 244.6252
5.531, 252.2745
5.6042, 260.163
5.6784, 260.1506
5.7534, 268.2854
5.8296, 276.6745
5.9066, 285.3261
5.9847, 294.2481
6.0639, 303.4491
6.144, 312.9378
6.2253, 322.7233
6.3078, 322.7079
6.3912, 332.7988
6.4757, 343.2053
6.5613, 353.9372
6.648, 365.0046
6.7359, 376.4182
6.825, 388.1886
6.9152, 400.3271
7.0066, 412.8452
7.0995, 412.8255
7.1934, 425.7344
7.2885, 439.0469
7.3848, 452.7757
7.4825, 466.9338
7.5814, 481.5346
7.6816, 496.592
7.7832, 512.1202
7.8862, 512.0958
7.9906, 528.1088
8.0962, 544.6226
8.2033, 561.6526
8.3117, 579.2153
8.4216, 597.3271
8.533, 616.0053
8.6461, 615.9759
8.7604, 635.2372
8.8761, 655.1008
8.9936, 675.5856
9.1125, 696.7107
9.2328, 718.4967
9.3553, 718.4624
9.479, 740.9284
9.6042, 764.097
9.7313, 787.9899
9.8599, 812.63
9.9903, 838.0406
10.1227, 838.0007
10.2565, 864.2046
10.3921, 891.2279
10.5295, 919.0962
10.6686, 947.8359
10.8101, 947.7908
10.9529, 977.4278
11.0979, 1007.9916
11.2446, 1039.511
11.3936, 1039.4615
11.5442, 1071.9649
11.6968, 1105.4849
11.8515, 1140.0529
12.0086, 1139.9986
12.1673, 1175.6459
12.3282, 1212.4078
12.4916, 1212.35
12.6566, 1250.2597
12.8241, 1289.3548
12.9936, 1329.6723
13.1658, 1329.609
13.3399, 1371.1853
13.5162, 1414.0616
13.6953, 1413.9942
13.8763, 1458.2092
14.0599, 1503.8068
14.2462, 1503.7351
14.4346, 1550.7563
14.6258, 1550.6824
14.8192, 1599.1715
15.0151, 1649.1769
15.2141, 1649.0983
15.4153, 1700.6649
15.6191, 1753.8439
15.826, 1753.7604
16.0352, 1808.5997
16.2478, 1808.5135
16.4626, 1865.065
16.6806, 1864.9761
16.9013, 1923.2931
17.1252, 1923.2014
17.3517, 1983.3391
17.5811, 2045.3573
17.814, 2045.2598
18.0496, 2109.2142
18.2888, 2109.1136
18.5306, 2175.0647
18.7761, 2174.9611
19.0244, 2242.9712
19.2764, 2242.8641
19.5312, 2312.9976
19.7901, 2312.8874
19.7894, 2385.3241
19.789, 2460.0294
20.0506, 2536.9535
20.05, 2616.4076
20.3157, 2616.2829
20.5849, 2616.1582
20.8577, 2616.0335
21.1334, 2697.8357
21.4135, 2697.7072
21.6966, 2782.0633
21.9841, 2781.9306
22.2753, 2781.7981
22.5699, 2868.7838
22.869, 2868.647
23.1727, 2781.4003
23.4798, 2781.2678
