6.4146783999432335E9 0.7634235116389096
1.8484859055990078E10 0.2403042894406969
3.3643860967608383E10 0.11698664131013076
6.219020280855669E10 0.05539709281106403
1.2230492515206511E11 0.022841122073038244
2.455469415909685E11 0.008727337346838893
4.179037162659344E11 0.003883098049059605
8.009168745845747E11 0.001309888921095986
1.307952367325972E12 5.21716857555435E-4
2.1359762161097676E12 1.8601119300152636E-4
3.081692047684952E12 7.939617845382276E-5
4.0515697356328696E12 3.973730381485604E-5
5.354261172440534E12 1.8558252277555187E-5
6.96705641743796E12 8.430468371788967E-6
8.834629493806045E12 3.829713914046277E-6
1.0861115683522943E13 1.8903973778192196E-6
1.2812188463606129E13 1.0069456081016936E-6
