6.548525119399505E9 0.8647165029752577
9.01897017335871E9 0.6159977960380166
1.511374871699342E10 0.36654580753581484
2.572254296721145E10 0.20923834803969774
4.28831812394063E10 0.12364722350537156
9.645059979735184E10 0.05063010378516437
1.5914526509295428E11 0.027918480887048548
2.598951686902799E11 0.015609420261897832
4.114809897469828E11 0.008547984528840414
8.050624978457717E11 0.0034282314937339707
1.2878505591147185E12 0.0016805479243623004
2.0180537784518606E12 8.124930210614056E-4
3.2449705698245425E12 3.565366736913652E-4
5.032615165250239E12 1.4498485724827122E-4
6.96705641743796E12 7.206351321293045E-5
1.0103789855519629E13 2.9102336346614125E-5
1.223049251520651E13 1.696129149030399E-5
1.591452650929543E13 8.143697687299462E-6
2.0180537784518523E13 3.910068526328828E-6
2.5067044904611332E13 1.8134978041964953E-6
2.9570047212625258E13 9.931023006150354E-7
