
x= #alpha_{int} [deg] ,  y= J(#alpha_{int}) [M_{#odot}^{2} kpc^{-5}]
     x       y_pdf_median  y_pdf_mean  y_mostlikely  y_chi2_best |   CL_lo_PDF   CL_up_PDF
                                                                 |          68.0% CL         |          95.0% CL          
1.000000e-02 2.641882e+10 2.868153e+10 1.383021e+10 5.973800e+11 | 9.356368e+09 8.930791e+10 | 3.552025e+09 3.316547e+11  
1.193777e-02 3.678553e+10 3.972550e+10 4.748010e+10 8.511920e+11 | 1.306011e+10 1.237215e+11 | 4.992469e+09 4.195512e+11  
1.425103e-02 5.102337e+10 5.488509e+10 6.740649e+10 1.212780e+12 | 1.838147e+10 1.685688e+11 | 7.150681e+09 5.697314e+11  
1.701254e-02 7.017728e+10 7.560753e+10 6.644438e+10 1.727854e+12 | 2.542249e+10 2.353969e+11 | 1.001078e+10 7.826528e+11  
2.030918e-02 9.567158e+10 1.038226e+11 1.362329e+11 2.461465e+12 | 3.500149e+10 3.167621e+11 | 1.405383e+10 1.049034e+12  
2.424462e-02 1.308010e+11 1.420553e+11 1.094622e+11 3.506148e+12 | 4.840391e+10 4.260847e+11 | 1.957667e+10 1.401718e+12  
2.894266e-02 1.798151e+11 1.936140e+11 1.007618e+11 4.993463e+12 | 6.709584e+10 5.767052e+11 | 2.736496e+10 1.816515e+12  
3.455107e-02 2.421893e+11 2.627885e+11 2.118239e+11 7.110320e+12 | 9.060675e+10 7.840970e+11 | 3.745762e+10 2.540828e+12  
4.124626e-02 3.240447e+11 3.549888e+11 5.492892e+11 1.012203e+13 | 1.219608e+11 1.059036e+12 | 4.988708e+10 3.545053e+12  
4.923883e-02 4.328023e+11 4.770815e+11 3.993822e+11 1.440477e+13 | 1.626266e+11 1.421052e+12 | 6.764867e+10 4.924864e+12  
5.878016e-02 5.807190e+11 6.358787e+11 3.446644e+11 2.049112e+13 | 2.151293e+11 1.925566e+12 | 9.110256e+10 6.864776e+12  
7.017038e-02 7.727927e+11 8.447768e+11 5.746075e+11 2.913373e+13 | 2.823702e+11 2.581289e+12 | 1.212215e+11 9.942329e+12  
8.376776e-02 1.006026e+12 1.115498e+12 1.180267e+12 4.139384e+13 | 3.561195e+11 3.521029e+12 | 1.530573e+11 1.419833e+13  
1.000000e-01 1.303460e+12 1.458666e+12 1.247301e+12 5.876344e+13 | 4.482292e+11 4.903641e+12 | 1.900404e+11 2.002338e+13  
1.193777e-01 1.677001e+12 1.896006e+12 1.247764e+12 8.333268e+13 | 5.574277e+11 6.823331e+12 | 2.288788e+11 2.850442e+13  
1.425103e-01 2.139931e+12 2.440777e+12 1.867457e+12 1.180166e+14 | 6.909376e+11 9.335357e+12 | 2.697892e+11 4.033531e+13  
1.701254e-01 2.686374e+12 3.116517e+12 3.998577e+12 1.668583e+14 | 8.377815e+11 1.297616e+13 | 3.129695e+11 5.674993e+13  
2.030918e-01 3.428505e+12 3.925400e+12 5.346709e+12 2.354277e+14 | 9.826305e+11 1.811415e+13 | 3.580600e+11 8.134361e+13  
2.424462e-01 4.313454e+12 4.938231e+12 2.716527e+12 3.313333e+14 | 1.145165e+12 2.480214e+13 | 4.085618e+11 1.139702e+14  
2.894266e-01 5.217947e+12 6.091340e+12 2.200333e+12 4.648612e+14 | 1.268499e+12 3.397187e+13 | 4.442344e+11 1.560265e+14  
3.455107e-01 6.261081e+12 7.439502e+12 2.750543e+12 6.497414e+14 | 1.390011e+12 4.475624e+13 | 4.726798e+11 2.197736e+14  
4.124626e-01 7.403322e+12 8.969841e+12 6.127647e+12 9.040154e+14 | 1.516695e+12 5.820999e+13 | 4.797807e+11 3.059604e+14  
4.923883e-01 8.703170e+12 1.072693e+13 2.629321e+12 1.250958e+15 | 1.584083e+12 7.903274e+13 | 4.904963e+11 4.239073e+14  
5.878016e-01 1.012779e+13 1.265034e+13 8.122304e+12 1.719777e+15 | 1.686072e+12 1.036143e+14 | 5.042000e+11 5.727355e+14  
7.017038e-01 1.190150e+13 1.474437e+13 3.710117e+12 2.346299e+15 | 1.755167e+12 1.393497e+14 | 5.075899e+11 8.051527e+14  
8.376776e-01 1.370766e+13 1.699169e+13 2.332778e+12 3.172086e+15 | 1.854454e+12 1.819024e+14 | 5.347494e+11 1.148325e+15  
1.000000e+00 1.539888e+13 1.937846e+13 4.337546e+12 4.258151e+15 | 1.894561e+12 2.348057e+14 | 5.492639e+11 1.640192e+15  
1.193777e+00 1.702869e+13 2.184883e+13 4.528416e+12 5.608761e+15 | 1.918017e+12 2.911678e+14 | 5.544159e+11 2.207360e+15  
1.425103e+00 1.862416e+13 2.434826e+13 2.513747e+12 7.310530e+15 | 1.973317e+12 3.556241e+14 | 5.558027e+11 3.005648e+15  
1.701254e+00 1.979225e+13 2.687500e+13 2.509643e+12 9.379632e+15 | 2.010237e+12 4.353643e+14 | 5.666162e+11 4.140272e+15  
2.030918e+00 2.112431e+13 2.934414e+13 3.104286e+12 1.185101e+16 | 2.021446e+12 5.285870e+14 | 5.588717e+11 5.467358e+15  
2.424462e+00 2.197853e+13 3.174777e+13 3.069988e+12 1.461439e+16 | 2.033576e+12 6.315320e+14 | 5.735869e+11 7.513745e+15  
2.894266e+00 2.235935e+13 3.399086e+13 3.286516e+12 1.768547e+16 | 2.036772e+12 7.424255e+14 | 5.742512e+11 9.707601e+15  
3.455107e+00 2.301607e+13 3.608762e+13 3.199234e+12 2.091930e+16 | 2.038816e+12 8.538892e+14 | 5.588945e+11 1.222356e+16  
4.124626e+00 2.419031e+13 3.799298e+13 2.994171e+12 2.422218e+16 | 2.048299e+12 9.880995e+14 | 5.622136e+11 1.531343e+16  
4.923883e+00 2.393879e+13 3.969129e+13 3.143352e+12 2.722972e+16 | 2.036878e+12 1.062787e+15 | 5.731635e+11 1.764887e+16  
5.878016e+00 2.469983e+13 4.113473e+13 3.279131e+12 2.994509e+16 | 2.041509e+12 1.174908e+15 | 5.771649e+11 2.086629e+16  
7.017038e+00 2.436113e+13 4.238914e+13 1.577403e+12 3.218365e+16 | 2.050622e+12 1.276833e+15 | 5.599614e+11 2.464741e+16  
8.376776e+00 2.475247e+13 4.340162e+13 3.123885e+12 3.388061e+16 | 2.067431e+12 1.340041e+15 | 5.545900e+11 2.871588e+16  
1.000000e+01 2.507769e+13 4.419656e+13 3.159507e+12 3.504985e+16 | 2.062594e+12 1.396356e+15 | 5.521528e+11 3.287611e+16  
