
# mass mdelta cdelta-mdelta[SANCHEZ14_200] luminosity[SANCHEZ14_200,DMmodel0,alpham=1.9] luminosity[SANCHEZ14_200,DMmodel0,alpham=2.0] cdelta-mdelta[B01_VIR] luminosity[B01_VIR,DMmodel0,alpham=1.9] luminosity[B01_VIR,DMmodel0,alpham=2.0] 
# [Msol]     [-]         L/mdelta/rho_0m [-] L/mdelta/rho_0m [-] [-]         L/mdelta/rho_0m [-] L/mdelta/rho_0m [-] 
1.0000e-02    4.54e+01    1.86e+06     1.87e+06     7.19e+01    6.57e+06     6.59e+06     
1.0000e+00    3.81e+01    1.28e+06     1.30e+06     6.07e+01    4.45e+06     4.55e+06     
1.0000e+02    3.15e+01    8.58e+05     9.08e+05     5.03e+01    2.95e+06     3.13e+06     
1.0000e+04    2.56e+01    5.69e+05     6.44e+05     4.07e+01    1.90e+06     2.18e+06     
1.0000e+06    2.04e+01    3.73e+05     4.67e+05     3.19e+01    1.20e+06     1.54e+06     
1.0000e+08    1.57e+01    2.39e+05     3.49e+05     2.38e+01    7.30e+05     1.13e+06     
1.0000e+10    1.15e+01    1.50e+05     2.70e+05     1.65e+01    4.35e+05     8.71e+05     
1.0000e+12    7.99e+00    9.31e+04     2.18e+05     1.03e+01    2.58e+05     7.09e+05     
1.0000e+14    5.54e+00    5.91e+04     1.84e+05     5.57e+00    1.55e+05     6.07e+05     
1.0000e+16    5.14e+00    4.27e+04     1.67e+05     2.47e+00    9.47e+04     5.41e+05     
