# x= r [kpc] ,  y= M(r) [M_{#odot}]
#     x       y_pdf_median  y_pdf_mean  y_mostlikely  y_chi2_best    CL_lo_PDF   CL_up_PDF
#                                                                 |          68.0% CL         |          95.0% CL          
1.0000e-02 1.77e+04 1.78e+04 6.20e+03 5.61e+04   5.89e+03 5.75e+04   2.09e+03 1.13e+05  
1.0723e-02 2.12e+04 2.11e+04 2.99e+04 6.54e+04   7.11e+03 6.67e+04   2.50e+03 1.29e+05  
1.1498e-02 2.50e+04 2.51e+04 3.57e+04 7.61e+04   8.57e+03 7.62e+04   3.09e+03 1.54e+05  
1.2328e-02 2.97e+04 2.97e+04 4.18e+04 8.84e+04   1.04e+04 8.76e+04   3.71e+03 1.76e+05  
1.3219e-02 3.55e+04 3.52e+04 4.82e+04 1.03e+05   1.26e+04 1.02e+05   4.58e+03 1.99e+05  
1.4175e-02 4.18e+04 4.17e+04 5.64e+04 1.19e+05   1.52e+04 1.17e+05   5.53e+03 2.35e+05  
1.5199e-02 4.88e+04 4.93e+04 6.59e+04 1.38e+05   1.86e+04 1.35e+05   6.82e+03 2.70e+05  
1.6298e-02 5.81e+04 5.83e+04 7.49e+04 1.59e+05   2.24e+04 1.53e+05   8.40e+03 3.01e+05  
1.7475e-02 6.90e+04 6.87e+04 8.61e+04 1.83e+05   2.73e+04 1.76e+05   1.04e+04 3.37e+05  
1.8738e-02 8.09e+04 8.10e+04 1.03e+05 2.11e+05   3.33e+04 2.03e+05   1.26e+04 3.78e+05  
2.0092e-02 9.67e+04 9.53e+04 1.18e+05 2.43e+05   4.00e+04 2.33e+05   1.50e+04 4.29e+05  
2.1544e-02 1.16e+05 1.12e+05 1.35e+05 2.79e+05   4.88e+04 2.64e+05   1.78e+04 4.86e+05  
2.3101e-02 1.36e+05 1.31e+05 3.63e+05 3.19e+05   5.95e+04 3.04e+05   2.17e+04 5.51e+05  
2.4771e-02 1.59e+05 1.54e+05 1.76e+05 3.66e+05   7.25e+04 3.47e+05   2.68e+04 6.13e+05  
2.6561e-02 1.83e+05 1.80e+05 1.12e+05 4.18e+05   8.87e+04 3.94e+05   3.34e+04 6.84e+05  
2.8480e-02 2.17e+05 2.11e+05 2.27e+05 4.76e+05   1.06e+05 4.44e+05   3.90e+04 7.58e+05  
3.0539e-02 2.55e+05 2.46e+05 2.57e+05 5.42e+05   1.28e+05 5.06e+05   4.42e+04 8.36e+05  
3.2745e-02 2.93e+05 2.86e+05 4.03e+05 6.16e+05   1.56e+05 5.79e+05   5.15e+04 9.17e+05  
3.5112e-02 3.45e+05 3.33e+05 3.28e+05 6.99e+05   1.86e+05 6.52e+05   6.32e+04 1.02e+06  
3.7649e-02 4.07e+05 3.87e+05 7.47e+05 7.91e+05   2.21e+05 7.46e+05   7.69e+04 1.12e+06  
4.0370e-02 4.77e+05 4.48e+05 4.09e+05 8.94e+05   2.61e+05 8.37e+05   9.07e+04 1.22e+06  
4.3288e-02 5.60e+05 5.20e+05 9.50e+05 1.01e+06   3.07e+05 9.49e+05   1.09e+05 1.34e+06  
4.6416e-02 6.42e+05 6.00e+05 5.17e+05 1.13e+06   3.58e+05 1.06e+06   1.23e+05 1.53e+06  
4.9770e-02 7.45e+05 6.92e+05 5.74e+05 1.27e+06   4.17e+05 1.18e+06   1.45e+05 1.73e+06  
5.3367e-02 8.67e+05 7.96e+05 6.31e+05 1.43e+06   4.85e+05 1.34e+06   1.73e+05 1.97e+06  
5.7224e-02 9.84e+05 9.13e+05 6.96e+05 1.60e+06   5.57e+05 1.52e+06   2.06e+05 2.24e+06  
6.1359e-02 1.12e+06 1.05e+06 1.11e+06 1.78e+06   6.45e+05 1.74e+06   2.44e+05 2.59e+06  
6.5793e-02 1.30e+06 1.20e+06 1.66e+06 1.98e+06   7.24e+05 2.00e+06   2.92e+05 3.11e+06  
7.0548e-02 1.49e+06 1.35e+06 1.83e+06 2.20e+06   8.05e+05 2.25e+06   3.36e+05 3.59e+06  
7.5646e-02 1.68e+06 1.54e+06 2.14e+06 2.44e+06   8.97e+05 2.60e+06   3.97e+05 4.07e+06  
8.1113e-02 1.86e+06 1.75e+06 1.83e+06 2.70e+06   1.01e+06 2.97e+06   4.41e+05 4.75e+06  
8.6975e-02 2.11e+06 1.98e+06 1.17e+06 2.98e+06   1.15e+06 3.55e+06   4.76e+05 5.70e+06  
9.3260e-02 2.35e+06 2.24e+06 2.23e+06 3.29e+06   1.26e+06 4.10e+06   5.21e+05 6.76e+06  
1.0000e-01 2.62e+06 2.52e+06 2.15e+06 3.61e+06   1.35e+06 4.81e+06   5.50e+05 7.99e+06  
1.0723e-01 2.94e+06 2.83e+06 3.34e+06 3.95e+06   1.46e+06 5.51e+06   5.77e+05 9.54e+06  
1.1498e-01 3.24e+06 3.18e+06 2.73e+06 4.32e+06   1.55e+06 6.53e+06   6.05e+05 1.13e+07  
1.2328e-01 3.59e+06 3.56e+06 5.77e+06 4.71e+06   1.65e+06 7.85e+06   6.40e+05 1.37e+07  
1.3219e-01 3.97e+06 3.97e+06 3.34e+06 5.12e+06   1.76e+06 9.15e+06   6.57e+05 1.66e+07  
1.4175e-01 4.45e+06 4.42e+06 6.06e+06 5.56e+06   1.91e+06 1.07e+07   6.80e+05 1.97e+07  
1.5199e-01 4.86e+06 4.92e+06 3.98e+06 6.01e+06   2.07e+06 1.24e+07   7.21e+05 2.41e+07  
1.6298e-01 5.43e+06 5.45e+06 6.39e+06 6.49e+06   2.19e+06 1.44e+07   7.46e+05 2.91e+07  
1.7475e-01 5.99e+06 6.03e+06 6.04e+06 6.98e+06   2.34e+06 1.69e+07   7.98e+05 3.52e+07  
1.8738e-01 6.42e+06 6.65e+06 2.17e+06 7.50e+06   2.39e+06 2.00e+07   8.94e+05 4.33e+07  
2.0092e-01 6.95e+06 7.33e+06 5.19e+06 8.03e+06   2.44e+06 2.38e+07   9.32e+05 5.23e+07  
2.1544e-01 7.43e+06 8.05e+06 5.57e+06 8.57e+06   2.52e+06 2.82e+07   9.63e+05 6.33e+07  
2.3101e-01 8.03e+06 8.82e+06 6.86e+06 9.13e+06   2.59e+06 3.31e+07   1.02e+06 7.71e+07  
2.4771e-01 8.74e+06 9.65e+06 2.43e+06 9.70e+06   2.59e+06 3.89e+07   9.97e+05 9.33e+07  
2.6561e-01 9.59e+06 1.05e+07 2.47e+06 1.03e+07   2.66e+06 4.57e+07   1.01e+06 1.12e+08  
2.8480e-01 1.04e+07 1.15e+07 7.10e+06 1.09e+07   2.67e+06 5.35e+07   1.04e+06 1.34e+08  
3.0539e-01 1.11e+07 1.25e+07 2.67e+06 1.14e+07   2.73e+06 6.36e+07   1.04e+06 1.66e+08  
3.2745e-01 1.19e+07 1.35e+07 4.99e+06 1.20e+07   2.74e+06 7.44e+07   1.04e+06 1.99e+08  
3.5112e-01 1.25e+07 1.46e+07 2.75e+06 1.26e+07   2.79e+06 8.77e+07   1.07e+06 2.39e+08  
3.7649e-01 1.33e+07 1.58e+07 2.72e+06 1.32e+07   2.78e+06 1.01e+08   1.06e+06 2.97e+08  
4.0370e-01 1.41e+07 1.71e+07 2.81e+06 1.37e+07   2.86e+06 1.15e+08   1.07e+06 3.58e+08  
4.3288e-01 1.54e+07 1.84e+07 2.89e+06 1.43e+07   2.93e+06 1.31e+08   1.07e+06 4.31e+08  
4.6416e-01 1.68e+07 1.98e+07 2.81e+06 1.48e+07   2.86e+06 1.58e+08   1.10e+06 5.17e+08  
4.9770e-01 1.81e+07 2.12e+07 2.71e+06 1.53e+07   2.78e+06 1.80e+08   1.11e+06 6.18e+08  
5.3367e-01 1.91e+07 2.27e+07 2.75e+06 1.58e+07   2.81e+06 2.04e+08   1.10e+06 7.79e+08  
5.7224e-01 2.03e+07 2.43e+07 5.43e+06 1.63e+07   2.98e+06 2.33e+08   1.13e+06 9.42e+08  
6.1359e-01 2.11e+07 2.59e+07 2.79e+06 1.68e+07   2.89e+06 2.74e+08   1.12e+06 1.11e+09  
6.5793e-01 2.22e+07 2.76e+07 2.80e+06 1.72e+07   2.89e+06 3.19e+08   1.12e+06 1.28e+09  
7.0548e-01 2.27e+07 2.94e+07 7.05e+06 1.76e+07   3.05e+06 3.56e+08   1.13e+06 1.55e+09  
7.5646e-01 2.36e+07 3.13e+07 2.97e+06 1.79e+07   3.04e+06 4.05e+08   1.14e+06 1.85e+09  
8.1113e-01 2.47e+07 3.32e+07 2.86e+06 1.83e+07   3.08e+06 4.59e+08   1.14e+06 2.19e+09  
8.6975e-01 2.60e+07 3.51e+07 2.74e+06 1.86e+07   3.05e+06 5.30e+08   1.14e+06 2.60e+09  
9.3260e-01 2.68e+07 3.71e+07 2.90e+06 1.89e+07   3.12e+06 5.98e+08   1.12e+06 3.07e+09  
1.0000e+00 2.78e+07 3.92e+07 2.77e+06 1.91e+07   3.23e+06 6.65e+08   1.14e+06 3.69e+09  
1.0723e+00 2.91e+07 4.14e+07 7.21e+06 1.94e+07   3.18e+06 7.55e+08   1.14e+06 4.38e+09  
1.1498e+00 3.01e+07 4.36e+07 2.95e+06 1.96e+07   3.17e+06 8.89e+08   1.15e+06 5.14e+09  
1.2328e+00 3.17e+07 4.58e+07 2.96e+06 1.98e+07   3.14e+06 1.04e+09   1.15e+06 6.04e+09  
1.3219e+00 3.29e+07 4.81e+07 3.50e+07 1.99e+07   3.19e+06 1.12e+09   1.13e+06 7.63e+09  
1.4175e+00 3.24e+07 5.04e+07 2.83e+06 2.01e+07   3.21e+06 1.28e+09   1.14e+06 9.12e+09  
1.5199e+00 3.34e+07 5.28e+07 7.18e+06 2.02e+07   3.23e+06 1.43e+09   1.13e+06 1.08e+10  
1.6298e+00 3.39e+07 5.52e+07 2.85e+06 2.03e+07   3.23e+06 1.62e+09   1.14e+06 1.30e+10  
1.7475e+00 3.52e+07 5.77e+07 2.99e+06 2.04e+07   3.25e+06 1.79e+09   1.15e+06 1.55e+10  
1.8738e+00 3.58e+07 6.01e+07 2.85e+06 2.04e+07   3.28e+06 2.04e+09   1.13e+06 1.82e+10  
2.0092e+00 3.48e+07 6.26e+07 2.99e+06 2.05e+07   3.25e+06 2.24e+09   1.13e+06 2.17e+10  
2.1544e+00 3.53e+07 6.52e+07 2.74e+06 2.06e+07   3.25e+06 2.50e+09   1.14e+06 2.57e+10  
2.3101e+00 3.56e+07 6.77e+07 2.86e+06 2.06e+07   3.29e+06 2.68e+09   1.13e+06 3.03e+10  
2.4771e+00 3.63e+07 7.03e+07 2.99e+06 2.06e+07   3.26e+06 2.83e+09   1.14e+06 3.58e+10  
2.6561e+00 3.70e+07 7.28e+07 3.02e+06 2.07e+07   3.29e+06 3.03e+09   1.15e+06 4.21e+10  
2.8480e+00 3.70e+07 7.54e+07 2.83e+06 2.07e+07   3.28e+06 3.32e+09   1.12e+06 4.91e+10  
3.0539e+00 3.75e+07 7.79e+07 2.85e+06 2.07e+07   3.30e+06 3.50e+09   1.12e+06 5.83e+10  
3.2745e+00 3.69e+07 8.05e+07 2.97e+06 2.07e+07   3.24e+06 3.77e+09   1.13e+06 6.83e+10  
3.5112e+00 3.73e+07 8.30e+07 3.08e+06 2.07e+07   3.20e+06 4.04e+09   1.14e+06 7.98e+10  
3.7649e+00 3.77e+07 8.55e+07 3.10e+06 2.07e+07   3.21e+06 4.35e+09   1.12e+06 9.38e+10  
4.0370e+00 3.76e+07 8.80e+07 3.11e+06 2.07e+07   3.23e+06 4.35e+09   1.12e+06 1.09e+11  
4.3288e+00 3.84e+07 9.05e+07 2.79e+06 2.07e+07   3.29e+06 4.74e+09   1.15e+06 1.26e+11  
4.6416e+00 3.95e+07 9.29e+07 2.88e+06 2.07e+07   3.24e+06 5.04e+09   1.16e+06 1.45e+11  
4.9770e+00 3.92e+07 9.53e+07 2.98e+06 2.07e+07   3.26e+06 5.52e+09   1.11e+06 1.64e+11  
5.3367e+00 4.09e+07 9.77e+07 3.08e+06 2.07e+07   3.19e+06 5.78e+09   1.13e+06 1.88e+11  
5.7224e+00 4.09e+07 1.00e+08 3.07e+06 2.07e+07   3.30e+06 6.02e+09   1.13e+06 1.99e+11  
6.1359e+00 4.10e+07 1.02e+08 3.07e+06 2.07e+07   3.29e+06 6.18e+09   1.13e+06 2.28e+11  
6.5793e+00 4.22e+07 1.05e+08 5.77e+06 2.07e+07   3.27e+06 6.36e+09   1.15e+06 2.58e+11  
7.0548e+00 4.20e+07 1.07e+08 2.79e+06 2.07e+07   3.26e+06 6.40e+09   1.12e+06 2.92e+11  
7.5646e+00 4.20e+07 1.09e+08 2.78e+06 2.07e+07   3.24e+06 6.51e+09   1.12e+06 3.31e+11  
8.1113e+00 4.35e+07 1.11e+08 2.85e+06 2.07e+07   3.29e+06 6.67e+09   1.12e+06 3.70e+11  
8.6975e+00 4.34e+07 1.13e+08 2.83e+06 2.07e+07   3.30e+06 6.56e+09   1.13e+06 3.72e+11  
9.3260e+00 4.28e+07 1.15e+08 2.80e+06 2.07e+07   3.28e+06 7.07e+09   1.13e+06 4.11e+11  
1.0000e+01 4.53e+07 1.17e+08 2.95e+06 2.07e+07   3.28e+06 7.53e+09   1.15e+06 4.47e+11  
