%!PS-Adobe-2.0
%%Title: /local/cc234/RECHERCHE/CLUMPS/CLUMPY_v2011.05/DocImages/rho2.ps: rho2
%%Creator: ROOT Version 5.23/04
%%CreationDate: Thu Jul 21 17:57:38 2011
%%Orientation: Landscape
%%EndComments
%%BeginProlog
/s {stroke} def /l {lineto} def /m {moveto} def /t {translate} def
/sw {stringwidth} def /r {rotate} def /rl {roll}  def /R {repeat} def
/d {rlineto} def /rm {rmoveto} def /gr {grestore} def /f {eofill} def
/c {setrgbcolor} def /black {0 setgray} def /sd {setdash} def
/cl {closepath} def /sf {scalefont setfont} def /lw {setlinewidth} def
/box {m dup 0 exch d exch 0 d 0 exch neg d cl} def
/NC{systemdict begin initclip end}def/C{NC box clip newpath}def
/bl {box s} def /bf {box f} def /Y { 0 exch d} def /X { 0 d} def 
/mp {newpath /y exch def /x exch def} def
/side {[w .77 mul w .23 mul] .385 w mul sd w 0 l currentpoint t -144 r} def
/mr {mp x y w2 0 360 arc} def /m24 {mr s} def /m20 {mr f} def
/mb {mp x y w2 add m w2 neg 0 d 0 w neg d w 0 d 0 w d cl} def
/mt {mp x y w2 add m w2 neg w neg d w 0 d cl} def
/m21 {mb f} def /m25 {mb s} def /m22 {mt f} def /m26{mt s} def
/m23 {mp x y w2 sub m w2 w d w neg 0 d cl f} def
/m27 {mp x y w2 add m w3 neg w2 neg d w3 w2 neg d w3 w2 d cl s} def
/m28 {mp x w2 sub y w2 sub w3 add m w3 0 d  0 w3 neg d w3 0 d 0 w3 d w3 0 d  0 w3 d w3 neg 0 d 0 w3 d w3 neg 0 d
 0 w3 neg d w3 neg 0 d cl s } def
/m29 {mp gsave x w2 sub y w2 add w3 sub m currentpoint t
 4 {side} repeat cl fill gr} def
/m30 {mp gsave x w2 sub y w2 add w3 sub m currentpoint t
 4 {side} repeat cl s gr} def
/m31 {mp x y w2 sub m 0 w d x w2 sub y m w 0 d x w2 sub y w2 add m w w neg d x w2 sub y w2
 sub m w w d s} def
/m2 {mp x y w2 sub m 0 w d x w2 sub y m w 0 d s} def
/m5 {mp x w2 sub y w2 sub m w w d x w2 sub y w2 add m w w neg d s} def
/reEncode {exch findfont dup length dict begin {1 index /FID eq  {pop pop} {def} ifelse } forall /Encoding exch def currentdict end dup /FontName get exch definefont pop } def [/Times-Bold /Times-Italic /Times-BoldItalic /Helvetica
 /Helvetica-Oblique /Helvetica-Bold /Helvetica-BoldOblique /Courier /Courier-Oblique /Courier-Bold /Courier-BoldOblique /Times-Roman /AvantGarde-Book /AvantGarde-BookOblique /AvantGarde-Demi /AvantGarde-DemiOblique /Bookman-Demi
 /Bookman-DemiItalic /Bookman-Light /Bookman-LightItalic /Helvetica-Narrow /Helvetica-Narrow-Bold /Helvetica-Narrow-BoldOblique /Helvetica-Narrow-Oblique /NewCenturySchlbk-Roman /NewCenturySchlbk-Bold
 /NewCenturySchlbk-BoldItalic /NewCenturySchlbk-Italic /Palatino-Bold /Palatino-BoldItalic /Palatino-Italic /Palatino-Roman ] {ISOLatin1Encoding reEncode } forall
/oshow {gsave [] 0 sd true charpath stroke gr} def
/stwn { /fs exch def /fn exch def /text exch def fn findfont fs sf
 text sw pop xs add /xs exch def} def
/stwb { /fs exch def /fn exch def /nbas exch def /textf exch deftextf length /tlen exch def nbas tlen gt {/nbas tlendef} iffn findfont fs sf textf dup length nbas sub nbas getinterval sw
pop neg xs add /xs exch def} def
/Zone {/iy exch def /ix exch def  ix 1 sub  3144 mul  1 iy sub  2224
 mul t} def
%%EndProlog
%%BeginSetup
%%EndSetup
newpath  gsave  90 r 0 -594 t  28 20 t .25 .25 scale  gsave 
%%Page: 1 1
 gsave  gsave 
 1 1 Zone
 gsave  0 0 t black[  ] 0 sd 3 lw 0.999 0.999 0.999 c 2948 2154 0 0 bf black 0.999 0.999 0.999 c 2579 1885 295 215 bf black 2579 1885 295 215 bl 0.999 0.999 0.999 c 2579 1885 295 215 bf black 2579 1885 295 215 bl 295 215 m 2579 X s
 gsave  2948 2154 0 0 C 2651 27 t 0 r /Times-Roman findfont 82.1433 sf 0 0 m (r [kpc]) show NC gr  295 244 m -29 Y s 304 272 m -57 Y s
 gsave  2948 2154 0 0 C 306 151 t 0 r /Times-Roman findfont 54.7622 sf 0 0 m (\25510) show NC gr 
 gsave  2948 2154 0 0 C 224 110 t 0 r /Times-Roman findfont 82.1433 sf 0 0 m (10) show NC gr  366 244 m -29 Y s 403 244 m -29 Y s 429 244 m -29 Y s 449 244 m -29 Y s 465 244 m -29 Y s 479 244 m -29 Y s 491 244 m -29 Y s 501 244 m -29 Y s 511 272 m
 -57 Y s
 gsave  2948 2154 0 0 C 525 151 t 0 r /Times-Roman findfont 54.7622 sf 0 0 m (\2559) show NC gr 
 gsave  2948 2154 0 0 C 443 110 t 0 r /Times-Roman findfont 82.1433 sf 0 0 m (10) show NC gr  573 244 m -29 Y s 609 244 m -29 Y s 635 244 m -29 Y s 655 244 m -29 Y s 671 244 m -29 Y s 685 244 m -29 Y s 697 244 m -29 Y s 708 244 m -29 Y s 717 272 m
 -57 Y s
 gsave  2948 2154 0 0 C 735 151 t 0 r /Times-Roman findfont 54.7622 sf 0 0 m (\2558) show NC gr 
 gsave  2948 2154 0 0 C 653 110 t 0 r /Times-Roman findfont 82.1433 sf 0 0 m (10) show NC gr  779 244 m -29 Y s 815 244 m -29 Y s 841 244 m -29 Y s 861 244 m -29 Y s 878 244 m -29 Y s 891 244 m -29 Y s 903 244 m -29 Y s 914 244 m -29 Y s 923 272 m
 -57 Y s
 gsave  2948 2154 0 0 C 940 151 t 0 r /Times-Roman findfont 54.7622 sf 0 0 m (\2557) show NC gr 
 gsave  2948 2154 0 0 C 858 110 t 0 r /Times-Roman findfont 82.1433 sf 0 0 m (10) show NC gr  986 244 m -29 Y s 1022 244 m -29 Y s 1048 244 m -29 Y s 1068 244 m -29 Y s 1084 244 m -29 Y s 1098 244 m -29 Y s 1110 244 m -29 Y s 1120 244 m -29 Y s 1130
 272 m -57 Y s
 gsave  2948 2154 0 0 C 1145 151 t 0 r /Times-Roman findfont 54.7622 sf 0 0 m (\2556) show NC gr 
 gsave  2948 2154 0 0 C 1063 110 t 0 r /Times-Roman findfont 82.1433 sf 0 0 m (10) show NC gr  1192 244 m -29 Y s 1228 244 m -29 Y s 1254 244 m -29 Y s 1274 244 m -29 Y s 1290 244 m -29 Y s 1304 244 m -29 Y s 1316 244 m -29 Y s 1327 244 m -29 Y s
 1336 272 m -57 Y s
 gsave  2948 2154 0 0 C 1351 151 t 0 r /Times-Roman findfont 54.7622 sf 0 0 m (\2555) show NC gr 
 gsave  2948 2154 0 0 C 1269 110 t 0 r /Times-Roman findfont 82.1433 sf 0 0 m (10) show NC gr  1398 244 m -29 Y s 1435 244 m -29 Y s 1460 244 m -29 Y s 1480 244 m -29 Y s 1497 244 m -29 Y s 1511 244 m -29 Y s 1523 244 m -29 Y s 1533 244 m -29 Y s
 1543 272 m -57 Y s
 gsave  2948 2154 0 0 C 1561 146 t 0 r /Times-Roman findfont 54.7622 sf 0 0 m (\2554) show NC gr 
 gsave  2948 2154 0 0 C 1479 110 t 0 r /Times-Roman findfont 82.1433 sf 0 0 m (10) show NC gr  1605 244 m -29 Y s 1641 244 m -29 Y s 1667 244 m -29 Y s 1687 244 m -29 Y s 1703 244 m -29 Y s 1717 244 m -29 Y s 1729 244 m -29 Y s 1740 244 m -29 Y s
 1749 272 m -57 Y s
 gsave  2948 2154 0 0 C 1766 151 t 0 r /Times-Roman findfont 54.7622 sf 0 0 m (\2553) show NC gr 
 gsave  2948 2154 0 0 C 1684 110 t 0 r /Times-Roman findfont 82.1433 sf 0 0 m (10) show NC gr  1811 244 m -29 Y s 1847 244 m -29 Y s 1873 244 m -29 Y s 1893 244 m -29 Y s 1910 244 m -29 Y s 1923 244 m -29 Y s 1935 244 m -29 Y s 1946 244 m -29 Y s
 1955 272 m -57 Y s
 gsave  2948 2154 0 0 C 1971 146 t 0 r /Times-Roman findfont 54.7622 sf 0 0 m (\2552) show NC gr 
 gsave  2948 2154 0 0 C 1889 110 t 0 r /Times-Roman findfont 82.1433 sf 0 0 m (10) show NC gr  2017 244 m -29 Y s 2054 244 m -29 Y s 2080 244 m -29 Y s 2100 244 m -29 Y s 2116 244 m -29 Y s 2130 244 m -29 Y s 2142 244 m -29 Y s 2152 244 m -29 Y s
 2162 272 m -57 Y s
 gsave  2948 2154 0 0 C 2177 146 t 0 r /Times-Roman findfont 54.7622 sf 0 0 m (\2551) show NC gr 
 gsave  2948 2154 0 0 C 2095 110 t 0 r /Times-Roman findfont 82.1433 sf 0 0 m (10) show NC gr  2224 244 m -29 Y s 2260 244 m -29 Y s 2286 244 m -29 Y s 2306 244 m -29 Y s 2322 244 m -29 Y s 2336 244 m -29 Y s 2348 244 m -29 Y s 2359 244 m -29 Y s
 2368 272 m -57 Y s
 gsave  2948 2154 0 0 C 2368 106 t 0 r  -16 0 t /Times-Roman findfont 82.1433 sf 0 0 m (1) show NC gr  2430 244 m -29 Y s 2467 244 m -29 Y s 2492 244 m -29 Y s 2512 244 m -29 Y s 2529 244 m -29 Y s 2543 244 m -29 Y s 2555 244 m -29 Y s 2565 244 m
 -29 Y s 2575 272 m -57 Y s
 gsave  2948 2154 0 0 C 2575 106 t 0 r  -41 0 t /Times-Roman findfont 82.1433 sf 0 0 m (10) show NC gr  2637 244 m -29 Y s 2673 244 m -29 Y s 2699 244 m -29 Y s 2719 244 m -29 Y s 2735 244 m -29 Y s 2749 244 m -29 Y s 2761 244 m -29 Y s 2771 244 m
 -29 Y s 2781 272 m -57 Y s
 gsave  2948 2154 0 0 C 2807 146 t 0 r /Times-Roman findfont 54.7622 sf 0 0 m (2) show NC gr 
 gsave  2948 2154 0 0 C 2724 110 t 0 r /Times-Roman findfont 82.1433 sf 0 0 m (10) show NC gr  2843 244 m -29 Y s 295 2100 m 2579 X s 295 2072 m 28 Y s 304 2044 m 56 Y s 366 2072 m 28 Y s 403 2072 m 28 Y s 429 2072 m 28 Y s 449 2072 m 28 Y s 465
 2072 m 28 Y s 479 2072 m 28 Y s 491 2072 m 28 Y s 501 2072 m 28 Y s 511 2044 m 56 Y s 573 2072 m 28 Y s 609 2072 m 28 Y s 635 2072 m 28 Y s 655 2072 m 28 Y s 671 2072 m 28 Y s 685 2072 m 28 Y s 697 2072 m 28 Y s 708 2072 m 28 Y s 717 2044 m 56 Y s
 779 2072 m 28 Y s 815 2072 m 28 Y s 841 2072 m 28 Y s 861 2072 m 28 Y s 878 2072 m 28 Y s 891 2072 m 28 Y s 903 2072 m 28 Y s 914 2072 m 28 Y s 923 2044 m 56 Y s 986 2072 m 28 Y s 1022 2072 m 28 Y s 1048 2072 m 28 Y s 1068 2072 m 28 Y s 1084 2072 m
 28 Y s 1098 2072 m 28 Y s 1110 2072 m 28 Y s 1120 2072 m 28 Y s 1130 2044 m 56 Y s 1192 2072 m 28 Y s 1228 2072 m 28 Y s 1254 2072 m 28 Y s 1274 2072 m 28 Y s 1290 2072 m 28 Y s 1304 2072 m 28 Y s 1316 2072 m 28 Y s 1327 2072 m 28 Y s 1336 2044 m
 56 Y s 1398 2072 m 28 Y s 1435 2072 m 28 Y s 1460 2072 m 28 Y s 1480 2072 m 28 Y s 1497 2072 m 28 Y s 1511 2072 m 28 Y s 1523 2072 m 28 Y s 1533 2072 m 28 Y s 1543 2044 m 56 Y s 1605 2072 m 28 Y s 1641 2072 m 28 Y s 1667 2072 m 28 Y s 1687 2072 m
 28 Y s 1703 2072 m 28 Y s 1717 2072 m 28 Y s 1729 2072 m 28 Y s 1740 2072 m 28 Y s 1749 2044 m 56 Y s 1811 2072 m 28 Y s 1847 2072 m 28 Y s 1873 2072 m 28 Y s 1893 2072 m 28 Y s 1910 2072 m 28 Y s 1923 2072 m 28 Y s 1935 2072 m 28 Y s 1946 2072 m
 28 Y s 1955 2044 m 56 Y s 2017 2072 m 28 Y s 2054 2072 m 28 Y s 2080 2072 m 28 Y s 2100 2072 m 28 Y s 2116 2072 m 28 Y s 2130 2072 m 28 Y s 2142 2072 m 28 Y s 2152 2072 m 28 Y s 2162 2044 m 56 Y s 2224 2072 m 28 Y s 2260 2072 m 28 Y s 2286 2072 m
 28 Y s 2306 2072 m 28 Y s 2322 2072 m 28 Y s 2336 2072 m 28 Y s 2348 2072 m 28 Y s 2359 2072 m 28 Y s 2368 2044 m 56 Y s 2430 2072 m 28 Y s 2467 2072 m 28 Y s 2492 2072 m 28 Y s 2512 2072 m 28 Y s 2529 2072 m 28 Y s 2543 2072 m 28 Y s 2555 2072 m
 28 Y s 2565 2072 m 28 Y s 2575 2044 m 56 Y s 2637 2072 m 28 Y s 2673 2072 m 28 Y s 2699 2072 m 28 Y s 2719 2072 m 28 Y s 2735 2072 m 28 Y s 2749 2072 m 28 Y s 2761 2072 m 28 Y s 2771 2072 m 28 Y s 2781 2044 m 56 Y s 2843 2072 m 28 Y s 295 215 m
 1885 Y s
 gsave  2948 2154 0 0 C 46 2076 t 90 r /Times-Roman findfont 59.3257 sf 0 0 m (2) show NC gr 
 gsave  2948 2154 0 0 C 87 2049 t 90 r /Times-Roman findfont 91.2703 sf 0 0 m (]) show NC gr 
 gsave  2948 2154 0 0 C 41 2022 t 90 r /Times-Roman findfont 59.3257 sf 0 0 m (3) show NC gr 
 gsave  2948 2154 0 0 C 87 1866 t 90 r /Times-Roman findfont 91.2703 sf 0 0 m (/kpc) show NC gr  6 lw 114 1876 m 9 X 5 -5 d 4 -5 d -22 Y -4 X -5 Y -5 X -4 -4 d -9 X -5 4 d -5 X 5 Y -4 X 22 Y 4 5 d 5 5 d 9 X cl s 114 1862 m 5 -5 d -4 Y -9 X 4 Y 4 5 d
 cl s
 gsave  2948 2154 0 0 C 87 1588 t 90 r /Times-Roman findfont 91.2703 sf 0 0 m (\(r\)  [M) show NC gr 
 gsave  2948 2154 0 0 C 55 1561 t 90 r /Times-Roman findfont 59.3257 sf 0 0 m (2) show NC gr 
 gsave  2948 2154 0 0 C 87 1515 t 90 r /Symbol findfont 91.2703 sf 0 0 m (r) show NC gr  3 lw 333 234 m -38 X s 372 251 m -77 X s
 gsave  2948 2154 0 0 C 242 256 t 0 r /Times-Roman findfont 54.7622 sf 0 0 m (6) show NC gr 
 gsave  2948 2154 0 0 C 160 219 t 0 r /Times-Roman findfont 82.1433 sf 0 0 m (10) show NC gr  333 291 m -38 X s 372 308 m -77 X s 333 347 m -38 X s 372 364 m -77 X s 333 403 m -38 X s 372 420 m -77 X s
 gsave  2948 2154 0 0 C 242 424 t 0 r /Times-Roman findfont 54.7622 sf 0 0 m (9) show NC gr 
 gsave  2948 2154 0 0 C 160 388 t 0 r /Times-Roman findfont 82.1433 sf 0 0 m (10) show NC gr  333 459 m -38 X s 372 476 m -77 X s 333 516 m -38 X s 372 533 m -77 X s 333 572 m -38 X s 372 589 m -77 X s
 gsave  2948 2154 0 0 C 214 589 t 0 r /Times-Roman findfont 54.7622 sf 0 0 m (12) show NC gr 
 gsave  2948 2154 0 0 C 132 557 t 0 r /Times-Roman findfont 82.1433 sf 0 0 m (10) show NC gr  333 628 m -38 X s 372 645 m -77 X s 333 685 m -38 X s 372 701 m -77 X s 333 741 m -38 X s 372 758 m -77 X s
 gsave  2948 2154 0 0 C 214 762 t 0 r /Times-Roman findfont 54.7622 sf 0 0 m (15) show NC gr 
 gsave  2948 2154 0 0 C 132 726 t 0 r /Times-Roman findfont 82.1433 sf 0 0 m (10) show NC gr  333 797 m -38 X s 372 814 m -77 X s 333 853 m -38 X s 372 870 m -77 X s 333 910 m -38 X s 372 926 m -77 X s
 gsave  2948 2154 0 0 C 214 931 t 0 r /Times-Roman findfont 54.7622 sf 0 0 m (18) show NC gr 
 gsave  2948 2154 0 0 C 132 894 t 0 r /Times-Roman findfont 82.1433 sf 0 0 m (10) show NC gr  333 966 m -38 X s 372 983 m -77 X s 333 1022 m -38 X s 372 1039 m -77 X s 333 1078 m -38 X s 372 1095 m -77 X s
 gsave  2948 2154 0 0 C 219 1091 t 0 r /Times-Roman findfont 54.7622 sf 0 0 m (21) show NC gr 
 gsave  2948 2154 0 0 C 137 1059 t 0 r /Times-Roman findfont 82.1433 sf 0 0 m (10) show NC gr  333 1135 m -38 X s 372 1152 m -77 X s 333 1191 m -38 X s 372 1208 m -77 X s 333 1247 m -38 X s 372 1264 m -77 X s
 gsave  2948 2154 0 0 C 214 1260 t 0 r /Times-Roman findfont 54.7622 sf 0 0 m (24) show NC gr 
 gsave  2948 2154 0 0 C 132 1228 t 0 r /Times-Roman findfont 82.1433 sf 0 0 m (10) show NC gr  333 1303 m -38 X s 372 1320 m -77 X s 333 1360 m -38 X s 372 1377 m -77 X s 333 1416 m -38 X s 372 1433 m -77 X s
 gsave  2948 2154 0 0 C 214 1433 t 0 r /Times-Roman findfont 54.7622 sf 0 0 m (27) show NC gr 
 gsave  2948 2154 0 0 C 132 1396 t 0 r /Times-Roman findfont 82.1433 sf 0 0 m (10) show NC gr  333 1472 m -38 X s 372 1489 m -77 X s 333 1528 m -38 X s 372 1545 m -77 X s 333 1585 m -38 X s 372 1602 m -77 X s
 gsave  2948 2154 0 0 C 214 1602 t 0 r /Times-Roman findfont 54.7622 sf 0 0 m (30) show NC gr 
 gsave  2948 2154 0 0 C 132 1565 t 0 r /Times-Roman findfont 82.1433 sf 0 0 m (10) show NC gr  333 1641 m -38 X s 372 1658 m -77 X s 333 1697 m -38 X s 372 1714 m -77 X s 333 1753 m -38 X s 372 1770 m -77 X s
 gsave  2948 2154 0 0 C 219 1771 t 0 r /Times-Roman findfont 54.7622 sf 0 0 m (33) show NC gr 
 gsave  2948 2154 0 0 C 137 1734 t 0 r /Times-Roman findfont 82.1433 sf 0 0 m (10) show NC gr  333 1810 m -38 X s 372 1827 m -77 X s 333 1866 m -38 X s 372 1883 m -77 X s 333 1922 m -38 X s 372 1939 m -77 X s
 gsave  2948 2154 0 0 C 214 1939 t 0 r /Times-Roman findfont 54.7622 sf 0 0 m (36) show NC gr 
 gsave  2948 2154 0 0 C 132 1903 t 0 r /Times-Roman findfont 82.1433 sf 0 0 m (10) show NC gr  333 1978 m -38 X s 372 1995 m -77 X s 333 2035 m -38 X s 372 2052 m -77 X s
 gsave  2948 2154 0 0 C 214 2054 t 0 r /Times-Roman findfont 54.7622 sf 0 0 m (38) show NC gr 
 gsave  2948 2154 0 0 C 132 2017 t 0 r /Times-Roman findfont 82.1433 sf 0 0 m (10) show NC gr  333 2091 m -38 X s 2874 215 m 1885 Y s 2836 234 m 38 X s 2797 251 m 77 X s 2836 291 m 38 X s 2797 308 m 77 X s 2836 347 m 38 X s 2797 364 m 77 X s 2836
 403 m 38 X s 2797 420 m 77 X s 2836 459 m 38 X s 2797 476 m 77 X s 2836 516 m 38 X s 2797 533 m 77 X s 2836 572 m 38 X s 2797 589 m 77 X s 2836 628 m 38 X s 2797 645 m 77 X s 2836 685 m 38 X s 2797 701 m 77 X s 2836 741 m 38 X s 2797 758 m 77 X s
 2836 797 m 38 X s 2797 814 m 77 X s 2836 853 m 38 X s 2797 870 m 77 X s 2836 910 m 38 X s 2797 926 m 77 X s 2836 966 m 38 X s 2797 983 m 77 X s 2836 1022 m 38 X s 2797 1039 m 77 X s 2836 1078 m 38 X s 2797 1095 m 77 X s 2836 1135 m 38 X s 2797 1152
 m 77 X s 2836 1191 m 38 X s 2797 1208 m 77 X s 2836 1247 m 38 X s 2797 1264 m 77 X s 2836 1303 m 38 X s 2797 1320 m 77 X s 2836 1360 m 38 X s 2797 1377 m 77 X s 2836 1416 m 38 X s 2797 1433 m 77 X s 2836 1472 m 38 X s 2797 1489 m 77 X s 2836 1528 m
 38 X s 2797 1545 m 77 X s 2836 1585 m 38 X s 2797 1602 m 77 X s 2836 1641 m 38 X s 2797 1658 m 77 X s 2836 1697 m 38 X s 2797 1714 m 77 X s 2836 1753 m 38 X s 2797 1770 m 77 X s 2836 1810 m 38 X s 2797 1827 m 77 X s 2836 1866 m 38 X s 2797 1883 m
 77 X s 2836 1922 m 38 X s 2797 1939 m 77 X s 2836 1978 m 38 X s 2797 1995 m 77 X s 2836 2035 m 38 X s 2797 2052 m 77 X s 2836 2091 m 38 X s 9 lw 304 769 m 1896 X 16 -1 d 98 X 17 -1 d 16 X 16 -1 d 17 -1 d 16 -2 d 16 -2 d 17 -3 d 16 -4 d 16 -5 d 17
 -7 d 16 -8 d 16 -10 d 17 -12 d 16 -12 d 16 -14 d 17 -15 d 16 -16 d 16 -17 d 17 -16 d 16 -17 d 17 -18 d 16 -17 d 16 -18 d 17 -17 d 16 -18 d 16 -18 d 17 -17 d 16 -18 d 16 -18 d 17 -18 d 16 -18 d 16 -17 d 17 -18 d 16 -18 d s 0 0 1 c black 0 0 1 c 304
 1947 m 17 -9 d 16 -9 d 16 -8 d 17 -9 d 16 -9 d 16 -9 d 17 -9 d 16 -9 d 16 -9 d 17 -9 d 16 -9 d 16 -9 d 17 -9 d 16 -8 d 16 -9 d 17 -9 d 16 -9 d 16 -9 d 17 -9 d 16 -9 d 16 -9 d 17 -9 d 16 -9 d 16 -9 d 17 -8 d 16 -9 d 16 -9 d 17 -9 d 16 -9 d 17 -9 d
 16 -9 d 16 -9 d 17 -9 d 16 -9 d 16 -9 d 17 -8 d 16 -9 d 16 -9 d 17 -9 d 16 -9 d 16 -9 d 17 -9 d 16 -9 d 16 -9 d 17 -9 d 16 -9 d 16 -8 d 17 -9 d 16 -9 d 16 -9 d 17 -9 d 16 -9 d 16 -9 d 17 -9 d 16 -9 d 16 -9 d 17 -9 d 16 -8 d 16 -9 d 17 -9 d 16 -9 d
 16 -9 d 17 -9 d 16 -9 d 16 -9 d 17 -9 d 16 -9 d 17 -9 d 16 -8 d 16 -9 d 17 -9 d 16 -9 d 16 -9 d 17 -9 d 16 -9 d 16 -9 d 17 -9 d 16 -9 d 16 -9 d 17 -8 d 16 -9 d 16 -9 d 17 -9 d 16 -9 d 16 -9 d 17 -9 d 16 -9 d 16 -9 d 17 -9 d 16 -9 d 16 -8 d 17 -9 d
 16 -9 d 16 -9 d 17 -9 d 16 -9 d 16 -9 d 17 -9 d 16 -9 d 16 -9 d 17 -9 d 16 -8 d 16 -9 d 17 -9 d 16 -9 d 17 -9 d 16 -9 d 16 -9 d 17 -9 d 16 -9 d 16 -9 d 17 -9 d 16 -9 d 16 -9 d 17 -9 d 16 -9 d 16 -9 d 17 -9 d 16 -9 d 16 -9 d 17 -9 d 16 -10 d 16 -9 d
 17 -9 d 16 -10 d 16 -9 d 17 -10 d 16 -10 d 16 -10 d 17 -10 d 16 -11 d 16 -11 d 17 -11 d 16 -11 d 16 -12 d 17 -13 d 16 -13 d 16 -13 d 17 -14 d 16 -15 d 16 -16 d 17 -17 d 16 -17 d 17 -18 d 16 -19 d 16 -19 d 17 -21 d 16 -21 d 16 -22 d 17 -22 d 16 -23
 d 16 -24 d 17 -24 d 16 -24 d 16 -25 d 17 -25 d 16 -25 d s 1 0 0 c[ 12 12] 0 sd black 1 0 0 c 304 2052 m 589 X 16 -11 d 16 -14 d 17 -13 d 16 -13 d 16 -14 d 17 -13 d 16 -13 d 16 -14 d 17 -13 d 16 -13 d 16 -14 d 17 -13 d 16 -14 d 16 -13 d 17 -13 d 16
 -14 d 16 -13 d 17 -13 d 16 -14 d 16 -13 d 17 -13 d 16 -14 d 16 -13 d 17 -14 d 16 -13 d 16 -13 d 17 -14 d 16 -13 d 16 -13 d 17 -14 d 16 -13 d 17 -13 d 16 -14 d 16 -13 d 17 -14 d 16 -13 d 16 -13 d 17 -14 d 16 -13 d 16 -13 d 17 -14 d 16 -13 d 16 -13 d
 17 -14 d 16 -13 d 16 -14 d 17 -13 d 16 -13 d 16 -14 d 17 -13 d 16 -13 d 16 -14 d 17 -13 d 16 -13 d 16 -14 d 17 -13 d 16 -14 d 16 -13 d 17 -13 d 16 -14 d 16 -13 d 17 -13 d 16 -14 d 16 -13 d 17 -13 d 16 -14 d 16 -13 d 17 -14 d 16 -13 d 17 -13 d 16
 -14 d 16 -13 d 17 -13 d 16 -14 d 16 -13 d 17 -13 d 16 -14 d 16 -13 d 17 -14 d 16 -13 d 16 -13 d 17 -14 d 16 -13 d 16 -13 d 17 -14 d 16 -13 d 16 -14 d 17 -13 d 16 -13 d 16 -14 d 17 -13 d 16 -14 d 16 -13 d 17 -14 d 16 -13 d 16 -14 d 17 -14 d 16 -13 d
 16 -14 d 17 -15 d 16 -14 d 16 -15 d 17 -15 d 16 -15 d 16 -16 d 17 -16 d 16 -18 d 17 -18 d 16 -19 d 16 -20 d 17 -20 d 16 -22 d 16 -23 d 17 -23 d 16 -24 d 16 -24 d 17 -25 d 16 -25 d 16 -26 d 17 -26 d 16 -26 d s 0 1 0 c[ 4 8] 0 sd black 0 1 0 c 304
 2052 m 196 X 17 -10 d 16 -10 d 16 -11 d 17 -11 d 16 -10 d 16 -11 d 17 -11 d 16 -10 d 16 -11 d 17 -11 d 16 -11 d 16 -10 d 17 -11 d 16 -11 d 16 -10 d 17 -11 d 16 -11 d 17 -10 d 16 -11 d 16 -11 d 17 -10 d 16 -11 d 16 -11 d 17 -11 d 16 -10 d 16 -11 d
 17 -11 d 16 -10 d 16 -11 d 17 -11 d 16 -10 d 16 -11 d 17 -11 d 16 -10 d 16 -11 d 17 -11 d 16 -11 d 16 -10 d 17 -11 d 16 -11 d 16 -10 d 17 -11 d 16 -11 d 16 -10 d 17 -11 d 16 -11 d 16 -10 d 17 -11 d 16 -11 d 16 -10 d 17 -11 d 16 -11 d 16 -11 d 17
 -10 d 16 -11 d 17 -11 d 16 -10 d 16 -11 d 17 -11 d 16 -10 d 16 -11 d 17 -11 d 16 -10 d 16 -11 d 17 -11 d 16 -11 d 16 -10 d 17 -11 d 16 -11 d 16 -10 d 17 -11 d 16 -11 d 16 -10 d 17 -11 d 16 -11 d 16 -10 d 17 -11 d 16 -11 d 16 -11 d 17 -10 d 16 -11 d
 16 -11 d 17 -10 d 16 -11 d 16 -11 d 17 -10 d 16 -11 d 16 -11 d 17 -10 d 16 -11 d 16 -11 d 17 -11 d 16 -10 d 17 -11 d 16 -11 d 16 -10 d 17 -11 d 16 -11 d 16 -11 d 17 -10 d 16 -11 d 16 -11 d 17 -10 d 16 -11 d 16 -11 d 17 -11 d 16 -11 d 16 -10 d 17
 -11 d 16 -11 d 16 -11 d 17 -11 d 16 -11 d 16 -11 d 17 -11 d 16 -12 d 16 -11 d 17 -12 d 16 -11 d 16 -12 d 17 -12 d 16 -13 d 16 -12 d 17 -13 d 16 -14 d 16 -13 d 17 -15 d 16 -14 d 16 -16 d 17 -16 d 16 -16 d 17 -18 d 16 -18 d 16 -18 d 17 -20 d 16 -20 d
 16 -21 d 17 -22 d 16 -22 d 16 -23 d 17 -23 d 16 -24 d 16 -24 d 17 -24 d 16 -25 d s 0.754 0.715 0.676 c[ 12 16 4 16] 0 sd black 0.754 0.715 0.676 c 304 1155 m 17 -1 d 49 X 16 -1 d 49 X 16 -1 d 33 X 16 -1 d 33 X 16 -1 d 33 X 16 -1 d 33 X 16 -1 d 17 X
 16 -1 d 16 X 17 -1 d 16 X 16 -1 d 17 X 16 -1 d 17 X 16 -1 d 16 X 17 -1 d 16 X 16 -1 d 17 -1 d 16 X 16 -1 d 17 -1 d 16 X 16 -1 d 17 -1 d 16 -1 d 16 -1 d 17 X 16 -1 d 16 -1 d 17 -1 d 16 -1 d 16 -1 d 17 -1 d 16 -1 d 16 -1 d 17 -1 d 16 -1 d 16 -2 d 17
 -1 d 16 -1 d 16 -1 d 17 -2 d 16 -1 d 16 -1 d 17 -2 d 16 -1 d 16 -2 d 17 -2 d 16 -1 d 17 -2 d 16 -2 d 16 -1 d 17 -2 d 16 -2 d 16 -2 d 17 -2 d 16 -2 d 16 -3 d 17 -2 d 16 -2 d 16 -2 d 17 -3 d 16 -2 d 16 -3 d 17 -3 d 16 -2 d 16 -3 d 17 -3 d 16 -3 d 16
 -3 d 17 -4 d 16 -3 d 16 -3 d 17 -4 d 16 -4 d 16 -3 d 17 -4 d 16 -4 d 16 -4 d 17 -4 d 16 -5 d 16 -4 d 17 -5 d 16 -5 d 16 -5 d 17 -5 d 16 -5 d 17 -5 d 16 -6 d 16 -6 d 17 -5 d 16 -7 d 16 -6 d 17 -6 d 16 -7 d 16 -7 d 17 -7 d 16 -7 d 16 -8 d 17 -8 d 16
 -8 d 16 -8 d 17 -8 d 16 -9 d 16 -9 d 17 -9 d 16 -10 d 16 -10 d 17 -10 d 16 -11 d 16 -10 d 17 -12 d 16 -11 d 16 -12 d 17 -12 d 16 -13 d 16 -13 d 17 -13 d 16 -14 d 16 -14 d 17 -15 d 16 -15 d 16 -16 d 17 -16 d 16 -17 d 17 -17 d 16 -17 d 16 -18 d 17
 -19 d 16 -20 d 16 -19 d 17 -21 d 16 -21 d 16 -22 d 17 -22 d 16 -24 d 16 -23 d 17 -25 d 16 -26 d s 0 1 1 c[ 20 12 4 12] 0 sd black 0 1 1 c 304 1171 m 33 X 16 -1 d 49 X 17 -1 d 49 X 16 -1 d 33 X 16 -1 d 33 X 16 -1 d 33 X 16 -1 d 16 X 17 -1 d 16 X 16
 -1 d 33 X 16 -1 d 17 X 16 -1 d 17 X 16 -1 d 16 -1 d 17 X 16 -1 d 16 X 17 -1 d 16 -1 d 16 X 17 -1 d 16 -1 d 16 -1 d 17 X 16 -1 d 16 -1 d 17 -1 d 16 -1 d 16 -1 d 17 X 16 -1 d 16 -1 d 17 -1 d 16 -1 d 16 -2 d 17 -1 d 16 -1 d 16 -1 d 17 -1 d 16 -1 d 16
 -2 d 17 -1 d 16 -1 d 16 -2 d 17 -1 d 16 -2 d 16 -1 d 17 -2 d 16 -2 d 17 -1 d 16 -2 d 16 -2 d 17 -2 d 16 -2 d 16 -2 d 17 -2 d 16 -2 d 16 -2 d 17 -3 d 16 -2 d 16 -2 d 17 -3 d 16 -2 d 16 -3 d 17 -3 d 16 -3 d 16 -2 d 17 -3 d 16 -4 d 16 -3 d 17 -3 d 16
 -3 d 16 -4 d 17 -4 d 16 -3 d 16 -4 d 17 -4 d 16 -4 d 16 -4 d 17 -5 d 16 -4 d 16 -5 d 17 -5 d 16 -5 d 16 -5 d 17 -5 d 16 -5 d 17 -6 d 16 -6 d 16 -6 d 17 -6 d 16 -6 d 16 -6 d 17 -7 d 16 -7 d 16 -7 d 17 -8 d 16 -7 d 16 -8 d 17 -8 d 16 -8 d 16 -9 d 17
 -9 d 16 -9 d 16 -10 d 17 -9 d 16 -10 d 16 -11 d 17 -10 d 16 -11 d 16 -12 d 17 -12 d 16 -12 d 16 -12 d 17 -13 d 16 -13 d 16 -14 d 17 -14 d 16 -15 d 16 -15 d 17 -15 d 16 -16 d 16 -17 d 17 -17 d 16 -17 d 17 -18 d 16 -19 d 16 -19 d 17 -20 d 16 -21 d 16
 -21 d 17 -22 d 16 -22 d 16 -23 d 17 -24 d 16 -25 d 16 -25 d 17 -27 d 16 -27 d s black[  ] 0 sd 3 lw 0.999 0.999 0.999 c 678 733 2005 1249 bf black
 gsave  2948 2154 0 0 C 2346 1912 t 0 r /Helvetica-Bold findfont 54.7622 sf 0 0 m (=4.00) show NC gr 
 gsave  2948 2154 0 0 C 2323 1889 t 0 r /Helvetica-Bold findfont 36.5081 sf 0 0 m (s) show NC gr 
 gsave  2948 2154 0 0 C 2172 1912 t 0 r /Helvetica-Bold findfont 54.7622 sf 0 0 m (ISO, r) show NC gr  9 lw 2030 1921 m 119 X s
 gsave  2948 2154 0 0 C 2437 1793 t 0 r /Helvetica-Bold findfont 54.7622 sf 0 0 m (=21.75) show NC gr 
 gsave  2948 2154 0 0 C 2414 1771 t 0 r /Helvetica-Bold findfont 36.5081 sf 0 0 m (s) show NC gr 
 gsave  2948 2154 0 0 C 2172 1793 t 0 r /Helvetica-Bold findfont 54.7622 sf 0 0 m (NFW97, r) show NC gr  0 0 1 c 2030 1799 m 119 X s black
 gsave  2948 2154 0 0 C 2355 1670 t 0 r /Helvetica-Bold findfont 54.7622 sf 0 0 m (=34.52) show NC gr 
 gsave  2948 2154 0 0 C 2332 1647 t 0 r /Helvetica-Bold findfont 36.5081 sf 0 0 m (s) show NC gr 
 gsave  2948 2154 0 0 C 2172 1670 t 0 r /Helvetica-Bold findfont 54.7622 sf 0 0 m (M98, r) show NC gr  1 0 0 c[ 12 12] 0 sd 2030 1677 m 119 X s black
 gsave  2948 2154 0 0 C 2432 1547 t 0 r /Helvetica-Bold findfont 54.7622 sf 0 0 m (=32.62) show NC gr 
 gsave  2948 2154 0 0 C 2410 1524 t 0 r /Helvetica-Bold findfont 36.5081 sf 0 0 m (s) show NC gr 
 gsave  2948 2154 0 0 C 2172 1547 t 0 r /Helvetica-Bold findfont 54.7622 sf 0 0 m (DMS04, r) show NC gr  0 1 0 c[ 4 8] 0 sd 2030 1554 m 119 X s black
 gsave  2948 2154 0 0 C 2629 1424 t 0 r /Helvetica-Bold findfont 54.7622 sf 0 0 m (=300.00) show NC gr 
 gsave  2948 2154 0 0 C 2606 1396 t 0 r /Helvetica-Bold findfont 36.5081 sf 0 0 m (s) show NC gr 
 gsave  2948 2154 0 0 C 2172 1424 t 0 r /Helvetica-Bold findfont 54.7622 sf 0 0 m (EINASTO_M06, r) show NC gr  0.754 0.715 0.676 c[ 12 16 4 16] 0 sd 2030 1432 m 119 X s black
 gsave  2948 2154 0 0 C 2624 1305 t 0 r /Helvetica-Bold findfont 54.7622 sf 0 0 m (=21.00) show NC gr 
 gsave  2948 2154 0 0 C 2601 1278 t 0 r /Helvetica-Bold findfont 36.5081 sf 0 0 m (s) show NC gr 
 gsave  2948 2154 0 0 C 2172 1305 t 0 r /Helvetica-Bold findfont 54.7622 sf 0 0 m (EINASTO_N04, r) show NC gr  0 1 1 c[ 20 12 4 12] 0 sd 2030 1310 m 119 X s black[  ] 0 sd 3 lw 0.999 0.999 0.999 c 737 108 442 1831 bf black
 gsave  2948 2154 0 0 C 1091 1903 t 0 r /Helvetica-Bold findfont 41.0716 sf 0 0 m (\2553) show NC gr 
 gsave  2948 2154 0 0 C 972 1871 t 0 r /Helvetica-Bold findfont 59.3257 sf 0 0 m ( kpc) show NC gr  6 lw 977 1862 m -9 Y -5 X -5 -5 d -4 X -5 5 d -4 X 18 Y 4 5 d 14 X 5 -5 d -9 Y cl s 967 1862 m -5 Y -4 X 5 Y -5 X 5 X 4 Y 4 X -4 Y cl s
 gsave  2948 2154 0 0 C 575 1871 t 0 r /Helvetica-Bold findfont 59.3257 sf 0 0 m ( = 1.00e+19 M) show NC gr 
 gsave  2948 2154 0 0 C 516 1839 t 0 r /Helvetica-Bold findfont 41.0716 sf 0 0 m (sat) show NC gr 
 gsave  2948 2154 0 0 C 484 1871 t 0 r /Symbol findfont 59.3257 sf 0 0 m (r) show NC gr  gr 
showpage
 gr 
%%Trailer
%%Pages:  1
 gr  gr  gr 
%%EOF
