#   ... processing rs1_nfw_DSPH ...
# x= r [kpc]
# y= #rho(r) [M_{#odot} kpc^{-3}]
#     x          y
  2.0000e-03   1.25e+10
  2.2675e-03   1.11e+10
  2.5709e-03   9.75e+09
  2.9148e-03   8.60e+09
  3.3047e-03   7.58e+09
  3.7467e-03   6.68e+09
  4.2479e-03   5.88e+09
  4.8162e-03   5.18e+09
  5.4604e-03   4.57e+09
  6.1909e-03   4.02e+09
  7.0190e-03   3.54e+09
  7.9579e-03   3.12e+09
  9.0225e-03   2.74e+09
  1.0229e-02   2.41e+09
  1.1598e-02   2.12e+09
  1.3149e-02   1.87e+09
  1.4908e-02   1.64e+09
  1.6902e-02   1.44e+09
  1.9163e-02   1.27e+09
  2.1727e-02   1.11e+09
  2.4633e-02   9.74e+08
  2.7928e-02   8.54e+08
  3.1664e-02   7.48e+08
  3.5900e-02   6.54e+08
  4.0703e-02   5.72e+08
  4.6147e-02   4.99e+08
  5.2320e-02   4.35e+08
  5.9319e-02   3.79e+08
  6.7254e-02   3.29e+08
  7.6251e-02   2.85e+08
  8.6451e-02   2.47e+08
  9.8015e-02   2.13e+08
  1.1113e-01   1.84e+08
  1.2599e-01   1.58e+08
  1.4285e-01   1.35e+08
  1.6195e-01   1.15e+08
  1.8362e-01   9.80e+07
  2.0818e-01   8.29e+07
  2.3603e-01   6.99e+07
  2.6760e-01   5.86e+07
  3.0340e-01   4.89e+07
  3.4399e-01   4.06e+07
  3.9000e-01   3.34e+07
  4.4217e-01   2.74e+07
  5.0132e-01   2.23e+07
  5.6838e-01   1.80e+07
  6.4441e-01   1.45e+07
  7.3061e-01   1.15e+07
  8.2835e-01   9.10e+06
  9.3916e-01   7.14e+06
  1.0648e+00   5.55e+06
  1.2072e+00   4.28e+06
  1.3687e+00   3.28e+06
  1.5518e+00   2.49e+06
  1.7594e+00   1.88e+06
  1.9947e+00   1.41e+06
  2.2616e+00   1.05e+06
  2.5641e+00   7.74e+05
  2.9071e+00   5.68e+05
  3.2960e+00   4.14e+05
  3.7369e+00   3.01e+05
  4.2368e+00   2.17e+05
  4.8035e+00   1.56e+05
  5.4461e+00   1.11e+05
  6.1746e+00   7.93e+04
  7.0005e+00   5.62e+04
  7.9370e+00   3.98e+04
  8.9987e+00   2.80e+04
  1.0202e+01   1.97e+04
  1.1567e+01   1.38e+04
  1.3115e+01   9.65e+03
  1.4869e+01   6.73e+03
  1.6858e+01   4.69e+03
  1.9113e+01   3.26e+03
  2.1670e+01   2.26e+03
  2.4568e+01   1.57e+03
  2.7855e+01   1.09e+03
  3.1581e+01   7.52e+02
  3.5806e+01   5.20e+02
  4.0595e+01   3.59e+02
  4.6026e+01   2.48e+02
  5.2183e+01   1.71e+02
  5.9163e+01   1.18e+02
  6.7077e+01   8.11e+01
  7.6050e+01   5.58e+01
  8.6223e+01   3.84e+01
  9.7757e+01   2.64e+01
  1.1083e+02   1.82e+01
  1.2566e+02   1.25e+01
  1.4247e+02   8.59e+00
  1.6153e+02   5.91e+00
  1.8314e+02   4.06e+00
  2.0763e+02   2.79e+00
  2.3541e+02   1.92e+00
  2.6690e+02   1.32e+00
  3.0260e+02   9.03e-01
  3.4308e+02   6.20e-01
  3.8897e+02   4.26e-01
  4.4101e+02   2.92e-01
  5.0000e+02   2.01e-01
#   ... processing rs1_einasto_DSPH ...
# x= r [kpc]
# y= #rho(r) [M_{#odot} kpc^{-3}]
#     x          y
  2.0000e-03   1.36e+10
  2.2675e-03   1.24e+10
  2.5709e-03   1.13e+10
  2.9148e-03   1.03e+10
  3.3047e-03   9.42e+09
  3.7467e-03   8.56e+09
  4.2479e-03   7.76e+09
  4.8162e-03   7.02e+09
  5.4604e-03   6.33e+09
  6.1909e-03   5.70e+09
  7.0190e-03   5.12e+09
  7.9579e-03   4.59e+09
  9.0225e-03   4.11e+09
  1.0229e-02   3.67e+09
  1.1598e-02   3.26e+09
  1.3149e-02   2.90e+09
  1.4908e-02   2.57e+09
  1.6902e-02   2.27e+09
  1.9163e-02   2.00e+09
  2.1727e-02   1.75e+09
  2.4633e-02   1.54e+09
  2.7928e-02   1.34e+09
  3.1664e-02   1.17e+09
  3.5900e-02   1.01e+09
  4.0703e-02   8.79e+08
  4.6147e-02   7.58e+08
  5.2320e-02   6.52e+08
  5.9319e-02   5.60e+08
  6.7254e-02   4.78e+08
  7.6251e-02   4.07e+08
  8.6451e-02   3.46e+08
  9.8015e-02   2.92e+08
  1.1113e-01   2.47e+08
  1.2599e-01   2.07e+08
  1.4285e-01   1.73e+08
  1.6195e-01   1.44e+08
  1.8362e-01   1.20e+08
  2.0818e-01   9.90e+07
  2.3603e-01   8.15e+07
  2.6760e-01   6.69e+07
  3.0340e-01   5.46e+07
  3.4399e-01   4.44e+07
  3.9000e-01   3.59e+07
  4.4217e-01   2.89e+07
  5.0132e-01   2.32e+07
  5.6838e-01   1.85e+07
  6.4441e-01   1.47e+07
  7.3061e-01   1.16e+07
  8.2835e-01   9.13e+06
  9.3916e-01   7.14e+06
  1.0648e+00   5.55e+06
  1.2072e+00   4.30e+06
  1.3687e+00   3.31e+06
  1.5518e+00   2.53e+06
  1.7594e+00   1.92e+06
  1.9947e+00   1.46e+06
  2.2616e+00   1.09e+06
  2.5641e+00   8.17e+05
  2.9071e+00   6.07e+05
  3.2960e+00   4.48e+05
  3.7369e+00   3.28e+05
  4.2368e+00   2.39e+05
  4.8035e+00   1.73e+05
  5.4461e+00   1.24e+05
  6.1746e+00   8.83e+04
  7.0005e+00   6.25e+04
  7.9370e+00   4.39e+04
  8.9987e+00   3.06e+04
  1.0202e+01   2.12e+04
  1.1567e+01   1.45e+04
  1.3115e+01   9.88e+03
  1.4869e+01   6.67e+03
  1.6858e+01   4.46e+03
  1.9113e+01   2.96e+03
  2.1670e+01   1.95e+03
  2.4568e+01   1.27e+03
  2.7855e+01   8.20e+02
  3.1581e+01   5.24e+02
  3.5806e+01   3.32e+02
  4.0595e+01   2.08e+02
  4.6026e+01   1.29e+02
  5.2183e+01   7.96e+01
  5.9163e+01   4.84e+01
  6.7077e+01   2.91e+01
  7.6050e+01   1.73e+01
  8.6223e+01   1.02e+01
  9.7757e+01   5.94e+00
  1.1083e+02   3.42e+00
  1.2566e+02   1.94e+00
  1.4247e+02   1.09e+00
  1.6153e+02   6.04e-01
  1.8314e+02   3.31e-01
  2.0763e+02   1.79e-01
  2.3541e+02   9.54e-02
  2.6690e+02   5.02e-02
  3.0260e+02   2.60e-02
  3.4308e+02   1.33e-02
  3.8897e+02   6.72e-03
  4.4101e+02   3.34e-03
  5.0000e+02   1.63e-03
#   ... processing rs1_gamma05_DSPH ...
# x= r [kpc]
# y= #rho(r) [M_{#odot} kpc^{-3}]
#     x          y
  2.0000e-03   7.93e+08
  2.2675e-03   7.44e+08
  2.5709e-03   6.98e+08
  2.9148e-03   6.55e+08
  3.3047e-03   6.15e+08
  3.7467e-03   5.77e+08
  4.2479e-03   5.41e+08
  4.8162e-03   5.07e+08
  5.4604e-03   4.76e+08
  6.1909e-03   4.46e+08
  7.0190e-03   4.18e+08
  7.9579e-03   3.92e+08
  9.0225e-03   3.67e+08
  1.0229e-02   3.44e+08
  1.1598e-02   3.22e+08
  1.3149e-02   3.01e+08
  1.4908e-02   2.81e+08
  1.6902e-02   2.63e+08
  1.9163e-02   2.46e+08
  2.1727e-02   2.29e+08
  2.4633e-02   2.14e+08
  2.7928e-02   1.99e+08
  3.1664e-02   1.85e+08
  3.5900e-02   1.72e+08
  4.0703e-02   1.60e+08
  4.6147e-02   1.48e+08
  5.2320e-02   1.37e+08
  5.9319e-02   1.27e+08
  6.7254e-02   1.17e+08
  7.6251e-02   1.07e+08
  8.6451e-02   9.85e+07
  9.8015e-02   9.01e+07
  1.1113e-01   8.21e+07
  1.2599e-01   7.46e+07
  1.4285e-01   6.75e+07
  1.6195e-01   6.08e+07
  1.8362e-01   5.46e+07
  2.0818e-01   4.87e+07
  2.3603e-01   4.32e+07
  2.6760e-01   3.81e+07
  3.0340e-01   3.34e+07
  3.4399e-01   2.90e+07
  3.9000e-01   2.51e+07
  4.4217e-01   2.15e+07
  5.0132e-01   1.82e+07
  5.6838e-01   1.53e+07
  6.4441e-01   1.28e+07
  7.3061e-01   1.06e+07
  8.2835e-01   8.66e+06
  9.3916e-01   7.02e+06
  1.0648e+00   5.64e+06
  1.2072e+00   4.48e+06
  1.3687e+00   3.53e+06
  1.5518e+00   2.75e+06
  1.7594e+00   2.12e+06
  1.9947e+00   1.63e+06
  2.2616e+00   1.23e+06
  2.5641e+00   9.28e+05
  2.9071e+00   6.93e+05
  3.2960e+00   5.13e+05
  3.7369e+00   3.78e+05
  4.2368e+00   2.76e+05
  4.8035e+00   2.00e+05
  5.4461e+00   1.45e+05
  6.1746e+00   1.04e+05
  7.0005e+00   7.44e+04
  7.9370e+00   5.30e+04
  8.9987e+00   3.76e+04
  1.0202e+01   2.66e+04
  1.1567e+01   1.87e+04
  1.3115e+01   1.31e+04
  1.4869e+01   9.21e+03
  1.6858e+01   6.44e+03
  1.9113e+01   4.49e+03
  2.1670e+01   3.13e+03
  2.4568e+01   2.18e+03
  2.7855e+01   1.51e+03
  3.1581e+01   1.05e+03
  3.5806e+01   7.25e+02
  4.0595e+01   5.01e+02
  4.6026e+01   3.46e+02
  5.2183e+01   2.39e+02
  5.9163e+01   1.65e+02
  6.7077e+01   1.14e+02
  7.6050e+01   7.84e+01
  8.6223e+01   5.40e+01
  9.7757e+01   3.72e+01
  1.1083e+02   2.56e+01
  1.2566e+02   1.76e+01
  1.4247e+02   1.21e+01
  1.6153e+02   8.33e+00
  1.8314e+02   5.72e+00
  2.0763e+02   3.93e+00
  2.3541e+02   2.70e+00
  2.6690e+02   1.86e+00
  3.0260e+02   1.28e+00
  3.4308e+02   8.76e-01
  3.8897e+02   6.02e-01
  4.4101e+02   4.13e-01
  5.0000e+02   2.84e-01
