-6.937984496124032 0.8562500000000002
-4.651162790697675 0.8250000000000002
-1.608527131782946 0.7796875000000001
1.0658914728682163 0.7312500000000002
3.1395348837209305 0.6875000000000002
5.988372093023255 0.6171875000000002
8.720930232558139 0.5406250000000001
11.453488372093023 0.4453125000000002
14.224806201550386 0.3515625000000002
15.465116279069768 0.3093750000000002
17.03488372093023 0.26718750000000013
