#DataThief /archeops/lacroix/Desktop/stage 2/doc/gilmore_exp.png mardi 19-juil.-2016 1:34:00 PM
0.05547, 1.06786
0.05623, 1.05414
0.05701, 1.05411
0.05701, 1.04059
0.0578, 1.04056
0.05859, 1.02719
0.0594, 1.02716
0.06022, 1.02713
0.06105, 1.02711
0.0619, 1.02708
0.06275, 1.02705
0.06362, 1.02702
0.06449, 1.027
0.06538, 1.02697
0.06629, 1.01377
0.0672, 1.01375
0.06813, 1.01372
0.06907, 1.0137
0.07002, 1.01367
0.07099, 1.01364
0.07197, 1.01362
0.07296, 1.02676
0.07397, 1.02674
0.07499, 1.02671
0.07602, 1.02669
0.07707, 1.02666
0.07814, 1.02663
0.07922, 1.02661
0.08031, 1.02658
0.08142, 1.02655
0.08254, 1.02653
0.08368, 1.0265
0.08483, 1.02648
0.08601, 1.02645
0.08719, 1.02641
0.0884, 1.0264
0.08962, 1.02637
0.09085, 1.02634
0.09211, 1.02632
0.09338, 1.02629
0.09467, 1.02626
0.09596, 1.02624
0.0973, 1.02621
0.09864, 1.02619
0.1, 1.02616
0.10138, 1.02613
0.10278, 1.02611
0.1042, 1.02608
0.10564, 1.02605
0.10709, 1.02603
0.10857, 1.026
0.11007, 1.02598
0.11159, 1.02595
0.11313, 1.02592
0.11469, 1.01274
0.11627, 1.01271
0.11788, 1.01268
0.1195, 1.01266
0.12115, 1.01263
0.12282, 1.01261
0.12452, 1.01258
0.12624, 1.01255
0.12798, 1.01253
0.12798, 0.99954
0.12975, 0.98668
0.13154, 0.98667
0.13335, 0.98664
0.13519, 0.98662
0.13706, 0.98659
0.13895, 0.98655
0.14087, 0.98654
0.1428, 0.98651
0.14478, 0.98648
0.14678, 0.9738
0.14881, 0.97378
0.15086, 0.97376
0.15294, 0.97373
0.15505, 0.97371
0.15719, 0.96119
0.15936, 0.96117
0.16156, 0.96113
0.16379, 0.96112
0.16605, 0.96109
0.16834, 0.94874
0.17066, 0.94872
0.17302, 0.94869
0.17541, 0.94867
0.17783, 0.94864
0.18028, 0.94862
0.18277, 0.93643
0.18529, 0.9364
0.18785, 0.93638
0.19044, 0.92434
0.19307, 0.92432
0.19573, 0.92429
0.19844, 0.92427
0.20117, 0.91239
0.20395, 0.91237
0.20676, 0.91234
0.20962, 0.91232
0.21251, 0.90059
0.21544, 0.90057
0.21842, 0.90055
0.22143, 0.90052
0.22449, 0.88895
0.22758, 0.88893
0.23072, 0.8889
0.23391, 0.87748
0.23714, 0.87745
0.24041, 0.87743
0.24373, 0.86615
0.24709, 0.86613
0.2505, 0.855
0.25396, 0.85497
0.25746, 0.85495
0.26102, 0.85493
0.26462, 0.84394
0.26827, 0.84392
0.27197, 0.83307
0.27573, 0.83305
0.27953, 0.82234
0.28339, 0.82232
0.2873, 0.81175
0.29126, 0.81172
0.29528, 0.81171
0.29936, 0.80128
0.30349, 0.80126
0.30768, 0.79096
0.31192, 0.79094
0.31623, 0.78077
0.32059, 0.78075
0.32059, 0.77073
0.32501, 0.77071
0.3295, 0.77069
0.33405, 0.76079
0.33866, 0.76077
0.34333, 0.75099
0.34806, 0.75097
0.35287, 0.74132
0.35774, 0.74129
0.36268, 0.73177
0.36769, 0.73175
0.36769, 0.72236
0.37276, 0.72235
0.3779, 0.71306
0.38312, 0.71304
0.38841, 0.70387
0.39377, 0.69483
0.3992, 0.69481
0.40471, 0.68588
0.41029, 0.67706
0.41596, 0.67705
0.4217, 0.66834
0.42752, 0.65974
0.43342, 0.65974
0.4394, 0.65126
0.44546, 0.65124
0.45161, 0.64287
0.45784, 0.6346
0.46416, 0.62645
0.47055, 0.62643
0.47706, 0.61838
0.48364, 0.61043
0.49032, 0.60258
0.49708, 0.59484
0.50394, 0.59482
0.5109, 0.58718
0.51795, 0.57962
0.5251, 0.57218
0.53234, 0.57216
0.53969, 0.56481
0.54714, 0.55755
0.55469, 0.55038
0.56233, 0.55037
0.5701, 0.54329
0.57797, 0.5363
0.58595, 0.52942
0.59403, 0.52261
0.60223, 0.5226
0.61053, 0.51588
0.61897, 0.50925
0.62751, 0.5027
0.63617, 0.49624
0.64495, 0.49623
0.65385, 0.48985
0.66286, 0.48356
0.67201, 0.47733
0.68129, 0.4712
0.69069, 0.46515
0.70023, 0.46513
0.70989, 0.45916
0.71969, 0.45325
0.72962, 0.44743
0.73969, 0.44168
0.74989, 0.436
0.76024, 0.43598
0.77073, 0.43038
0.78137, 0.42485
0.79215, 0.41939
0.80309, 0.414
0.81416, 0.40868
0.8254, 0.40343
0.83679, 0.39824
0.84833, 0.39822
0.84833, 0.39312
0.86005, 0.39311
0.87192, 0.38806
0.88395, 0.38805
0.89615, 0.38306
0.90852, 0.37814
0.92106, 0.37328
0.93377, 0.36848
0.94665, 0.36847
0.95972, 0.36372
0.97296, 0.35906
0.98639, 0.35443
1.0, 0.34988
1.0138, 0.34988
1.02779, 0.34538
1.04197, 0.34094
1.05635, 0.33656
1.07093, 0.33223
1.08571, 0.33222
1.08571, 0.32796
1.10069, 0.32795
1.11588, 0.32374
1.13128, 0.31957
1.1469, 0.31957
1.1469, 0.31547
1.16272, 0.31546
1.17877, 0.3114
1.19504, 0.3114
1.21153, 0.30739
1.22825, 0.30344
1.2452, 0.29954
1.26238, 0.29953
1.2798, 0.29568
1.29746, 0.29568
1.29746, 0.29188
1.31537, 0.29188
1.33352, 0.28812
1.35192, 0.28812
1.37058, 0.28441
1.3895, 0.28076
1.40866, 0.28075
1.40866, 0.27715
1.42811, 0.27714
1.44782, 0.27713
1.4678, 0.27356
1.48806, 0.27006
1.50858, 0.27005
1.50858, 0.26658
1.52941, 0.26658
1.55052, 0.26657
1.57191, 0.26314
1.59361, 0.25976
1.6156, 0.25975
1.63789, 0.25641
1.66049, 0.25641
1.6834, 0.25311
1.70664, 0.25311
1.7302, 0.25309
1.75407, 0.24985
1.77828, 0.24664
1.80282, 0.24663
1.8277, 0.24346
1.85292, 0.24345
1.87849, 0.24032
1.90442, 0.24032
1.93069, 0.23723
1.95733, 0.23722
1.98435, 0.23722
2.01174, 0.23417
2.0395, 0.23416
2.06765, 0.23115
2.09618, 0.23115
2.12511, 0.22817
2.15443, 0.22817
2.18417, 0.22523
2.21431, 0.22523
2.24487, 0.22233
2.27585, 0.22233
2.30725, 0.21947
2.33909, 0.21947
2.37137, 0.21946
2.4041, 0.21664
2.43728, 0.21385
2.47091, 0.21385
2.50501, 0.21384
2.53958, 0.21109
2.57463, 0.21109
2.61016, 0.20838
2.64618, 0.20837
2.6827, 0.20569
2.71972, 0.20569
2.75725, 0.20304
2.7953, 0.20304
2.83388, 0.20042
2.87298, 0.19785
2.91263, 0.19785
2.95283, 0.1953
2.99358, 0.1953
3.03489, 0.19279
3.07677, 0.19278
3.07677, 0.19031
3.11923, 0.19031
3.16228, 0.1903
3.20591, 0.18785
3.25016, 0.18785
3.29501, 0.18543
3.34048, 0.18305
3.38658, 0.18305
3.43332, 0.18069
3.4807, 0.18069
3.52874, 0.17837
3.57743, 0.17607
3.6268, 0.17607
3.67685, 0.17381
3.72759, 0.17157
3.77904, 0.17157
3.83118, 0.16936
3.88405, 0.16719
3.93766, 0.16504
3.992, 0.16503
4.04709, 0.16291
4.10294, 0.16082
4.15956, 0.15875
4.21696, 0.15671
4.27516, 0.15469
4.33416, 0.15469
4.39397, 0.1527
4.45461, 0.15074
4.51608, 0.1488
4.5784, 0.14689
4.64158, 0.145
4.70564, 0.14314
4.77058, 0.1413
4.83642, 0.13948
4.90316, 0.13769
4.97082, 0.13592
5.03942, 0.13417
5.03942, 0.13245
5.03942, 0.13075
5.10897, 0.13075
5.10897, 0.12907
5.17947, 0.12907
5.17947, 0.12741
5.25095, 0.12577
5.32342, 0.12416
5.39688, 0.12256
5.47136, 0.12099
5.47136, 0.11943
5.54687, 0.1179
5.62341, 0.11638
5.70102, 0.11489
5.70102, 0.11341
5.77969, 0.11195
5.85945, 0.11052
5.94032, 0.1091
5.94032, 0.1077
6.02229, 0.10631
6.1054, 0.10494
6.18966, 0.1036
6.18966, 0.10227
6.27508, 0.10095
6.36167, 0.09965
6.44947, 0.09837
6.53847, 0.09711
6.53847, 0.09586
6.53847, 0.09463
6.6287, 0.09342
6.6287, 0.09222
6.72018, 0.09103
6.72018, 0.08987
6.81292, 0.08871
6.90694, 0.08757
6.90694, 0.08645
7.00226, 0.08534
7.00226, 0.08424
7.09889, 0.08316
7.09889, 0.08209
7.19686, 0.08104
7.19686, 0.08
7.29617, 0.07897
7.29617, 0.07796
7.39686, 0.07695
7.39686, 0.07597
7.49894, 0.07499
7.49894, 0.07403
7.60243, 0.07308
7.60243, 0.07214
7.70733, 0.07121
7.70733, 0.0703
7.81371, 0.06939
7.81371, 0.0685
7.92154, 0.06762
7.92154, 0.06676
7.92154, 0.0659
8.03086, 0.06505
8.03086, 0.06422
8.03086, 0.06339
8.14168, 0.06258
8.14168, 0.06178
8.14168, 0.06098
8.25404, 0.0602
8.25404, 0.05943
8.36795, 0.05866
8.36795, 0.05791
8.48343, 0.05717
8.48343, 0.05643
8.48343, 0.05571
8.6005, 0.05499
8.6005, 0.05429
8.71919, 0.05359
8.71919, 0.0529
8.71919, 0.05222
8.83952, 0.05155
8.83952, 0.05089
8.83952, 0.05024
8.96151, 0.04959
8.96151, 0.04896
8.96151, 0.04833
9.08518, 0.04771
9.08518, 0.0471
9.08518, 0.04649
9.21055, 0.04589
9.21055, 0.0453
9.21055, 0.04472
9.33766, 0.04415
9.33766, 0.04358
9.33766, 0.04302
9.33766, 0.04247
9.33766, 0.04193
9.46652, 0.04139
9.46652, 0.04086
9.46652, 0.04033
9.59716, 0.03981
9.59716, 0.0393
9.59716, 0.0388
9.72961, 0.0383
9.72961, 0.03781
9.72961, 0.03732
9.72961, 0.03684
9.86388, 0.03637
9.86388, 0.0359
10.0, 0.03544
10.0, 0.03499
10.0, 0.03454
10.0, 0.0341
10.0, 0.03366
10.0, 0.03323
10.138, 0.0328
10.138, 0.03238
10.138, 0.03196
10.138, 0.03155
10.2779, 0.03115
10.2779, 0.03075
10.2779, 0.03035
10.41975, 0.02996
10.41975, 0.02958
10.41975, 0.0292
10.41975, 0.02883
10.56354, 0.02846
10.56354, 0.02809
10.56354, 0.02773
10.56354, 0.02737
10.56354, 0.02702
10.70932, 0.02668
10.70932, 0.02633
10.70932, 0.026
10.70932, 0.02566
10.85711, 0.02533
10.85711, 0.02501
10.85711, 0.02469
10.85711, 0.02437
11.00694, 0.02406
11.00694, 0.02375
11.00694, 0.02344
11.00694, 0.02314
11.15884, 0.02284
11.15884, 0.02255
11.15884, 0.02226
11.15884, 0.02198
11.15884, 0.02169
11.15884, 0.02142
11.31283, 0.02114
11.31283, 0.02087
11.31283, 0.0206
11.31283, 0.02034
11.31283, 0.02008
11.46895, 0.01982
11.46895, 0.01956
11.46895, 0.01931
11.46895, 0.01907
11.46895, 0.01882
11.46895, 0.01858
11.62723, 0.01834
11.62723, 0.01811
11.62723, 0.01787
11.62723, 0.01764
11.62723, 0.01742
11.62723, 0.01719
11.62723, 0.01697
11.78769, 0.01676
11.78769, 0.01654
11.78769, 0.01633
11.78769, 0.01612
11.95035, 0.01591
11.95035, 0.01571
11.95035, 0.01551
11.95035, 0.01531
11.95035, 0.01511
11.95035, 0.01492
12.11528, 0.01473
12.11528, 0.01454
12.11528, 0.01435
12.11528, 0.01417
12.11528, 0.01398
12.11528, 0.0138
12.11528, 0.01363
12.28247, 0.01345
12.28247, 0.01328
12.28247, 0.01311
12.28247, 0.01294
12.28247, 0.01278
12.45197, 0.01261
12.45197, 0.01245
12.45197, 0.01229
12.45197, 0.01213
12.45197, 0.01198
12.45197, 0.01182
12.45197, 0.01167
12.62381, 0.01152
12.62381, 0.01137
12.62381, 0.01123
12.62381, 0.01108
12.62381, 0.01094
12.62381, 0.0108
12.62381, 0.01066
12.62381, 0.01053
12.79802, 0.01039
12.79802, 0.01026
12.79802, 0.01013
12.79802, 9.99539e-3
12.79802, 9.86716e-3
12.79802, 9.74058e-3
12.79802, 9.61562e-3
12.97464, 9.49202e-3
12.97464, 9.37025e-3
12.97464, 9.25004e-3
12.97464, 9.13138e-3
12.97464, 9.01423e-3
12.97464, 8.89859e-3
12.97464, 8.78444e-3
12.97464, 8.67174e-3
12.97464, 8.5605e-3
13.15369, 8.45046e-3
13.15369, 8.34205e-3
13.15369, 8.23503e-3
13.15369, 8.12939e-3
13.15369, 8.0251e-3
13.15369, 7.92215e-3
13.33521, 7.82032e-3
13.33521, 7.71999e-3
13.33521, 7.62095e-3
13.33521, 7.52319e-3
13.33521, 7.42667e-3
13.33521, 7.3314e-3
13.33521, 7.23735e-3
13.33521, 7.1445e-3
13.33521, 7.05285e-3
13.33521, 6.96237e-3
13.51924, 6.87287e-3
13.51924, 6.7847e-3
13.51924, 6.69767e-3
13.51924, 6.61174e-3
13.51924, 6.52692e-3
13.51924, 6.44319e-3
13.70581, 6.36037e-3
13.70581, 6.27878e-3
13.70581, 6.19823e-3
13.70581, 6.11871e-3
13.70581, 6.04022e-3
13.70581, 5.96273e-3
13.70581, 5.88623e-3
13.70581, 5.81072e-3
13.70581, 5.73618e-3
13.89495, 5.66245e-3
13.89495, 5.5898e-3
13.89495, 5.51809e-3
13.89495, 5.4473e-3
13.89495, 5.37742e-3
13.89495, 5.30844e-3
14.08671, 5.2402e-3
14.08671, 5.17298e-3
14.08671, 5.10661e-3
14.08671, 5.0411e-3
14.08671, 4.97643e-3
14.08671, 4.91259e-3
14.08671, 4.84957e-3
14.08671, 4.78736e-3
14.08671, 4.72594e-3
14.08671, 4.66531e-3
14.08671, 4.60546e-3
14.28111, 4.54626e-3
14.28111, 4.48794e-3
14.28111, 4.43037e-3
14.28111, 4.37353e-3
14.28111, 4.31742e-3
14.28111, 4.26204e-3
14.28111, 4.20736e-3
14.28111, 4.15339e-3
14.28111, 4.1001e-3
14.47819, 4.0474e-3
14.47819, 3.99548e-3
14.47819, 3.94422e-3
14.47819, 3.89362e-3
14.47819, 3.84367e-3
14.47819, 3.79436e-3
14.47819, 3.74569e-3
14.47819, 3.69763e-3
14.47819, 3.6502e-3
14.47819, 3.60337e-3
14.47819, 3.55714e-3
14.47819, 3.51151e-3
14.67798, 3.46637e-3
14.67798, 3.4219e-3
14.67798, 3.37801e-3
14.67798, 3.33467e-3
14.67798, 3.29189e-3
14.67798, 3.24966e-3
14.67798, 3.20797e-3
14.67798, 3.16682e-3
14.88055, 3.12611e-3
14.88055, 3.08601e-3
14.88055, 3.04642e-3
14.88055, 3.00734e-3
14.88055, 2.96876e-3
14.88055, 2.93067e-3
14.88055, 2.89307e-3
14.88055, 2.85596e-3
14.88055, 2.81932e-3
15.08591, 2.78308e-3
15.08591, 2.74738e-3
15.08591, 2.71213e-3
15.08591, 2.67734e-3
15.08591, 2.64299e-3
15.08591, 2.60909e-3
15.08591, 2.57562e-3
15.08591, 2.54257e-3
15.08591, 2.50996e-3
15.08591, 2.47776e-3
15.08591, 2.44597e-3
15.2941, 2.41453e-3
15.2941, 2.38356e-3
15.2941, 2.35298e-3
15.2941, 2.32279e-3
15.2941, 2.29299e-3
15.2941, 2.26358e-3
15.2941, 2.23454e-3
15.2941, 2.20587e-3
15.2941, 2.17757e-3
15.2941, 2.14964e-3
15.2941, 2.12206e-3
15.50516, 2.09478e-3
15.50516, 2.06791e-3
15.50516, 2.04138e-3
15.50516, 2.01519e-3
15.50516, 1.98934e-3
15.50516, 1.96382e-3
15.50516, 1.93863e-3
15.50516, 1.91376e-3
15.50516, 1.88921e-3
15.50516, 1.86497e-3
15.71913, 1.841e-3
15.71913, 1.81738e-3
15.71913, 1.79407e-3
15.71913, 1.77105e-3
15.71913, 1.74833e-3
15.71913, 1.7259e-3
15.71913, 1.70376e-3
15.71913, 1.6819e-3
15.71913, 1.66033e-3
15.71913, 1.63903e-3
15.93606, 1.61796e-3
15.93606, 1.5972e-3
15.93606, 1.57671e-3
15.93606, 1.55649e-3
15.93606, 1.53652e-3
15.93606, 1.51681e-3
15.93606, 1.49735e-3
15.93606, 1.47814e-3
15.93606, 1.45918e-3
15.93606, 1.44046e-3
15.93606, 1.42198e-3
15.93606, 1.40374e-3
15.93606, 1.38573e-3
15.93606, 1.36795e-3
16.15598, 1.35037e-3
16.15598, 1.33304e-3
16.15598, 1.31594e-3
16.15598, 1.29906e-3
16.15598, 1.28239e-3
16.15598, 1.26594e-3
16.15598, 1.2497e-3
16.15598, 1.23367e-3
16.15598, 1.21784e-3
16.15598, 1.20222e-3
16.15598, 1.1868e-3
16.15598, 1.17157e-3
16.15598, 1.15654e-3
16.37894, 1.14168e-3
16.37894, 1.12703e-3
16.37894, 1.11257e-3
16.37894, 1.0983e-3
16.37894, 1.08421e-3
16.37894, 1.0703e-3
16.37894, 1.05657e-3
