#DataThief /archeops/lacroix/Desktop/Simu-absorption.png mercredi 6-juil.-2016 10:02:30 AM
0.036645, 7.581934e-4
0.036645, 7.819606e-4
0.036645, 8.064727e-4
0.037131, 8.317709e-4
0.037131, 8.578444e-4
0.037131, 8.847353e-4
0.037131, 9.124691e-4
0.037623, 9.410923e-4
0.037623, 9.705927e-4
0.037623, 0.001001
0.038121, 0.001032
0.038121, 0.001065
0.038121, 0.001098
0.038121, 0.001133
0.038627, 0.001168
0.038627, 0.001205
0.038627, 0.001242
0.038627, 0.001281
0.039138, 0.001322
0.039138, 0.001363
0.039138, 0.001406
0.039657, 0.00145
0.039657, 0.001495
0.039657, 0.001542
0.039657, 0.001591
0.040182, 0.00164
0.040182, 0.001692
0.040182, 0.001745
0.040715, 0.0018
0.040715, 0.001856
0.040715, 0.001914
0.040715, 0.001974
0.041254, 0.002036
0.041254, 0.0021
0.041254, 0.002166
0.041801, 0.002234
0.041801, 0.002304
0.041801, 0.002376
0.042355, 0.002451
0.042355, 0.002527
0.042355, 0.002607
0.042916, 0.002688
0.042916, 0.002773
0.043485, 0.00286
0.043485, 0.002949
0.043485, 0.003042
0.044061, 0.003137
0.044061, 0.003235
0.044645, 0.003337
0.044645, 0.003442
0.044645, 0.003549
0.045237, 0.003661
0.045237, 0.003776
0.045836, 0.003894
0.045836, 0.004016
0.046444, 0.004142
0.046444, 0.004272
0.046444, 0.004406
0.047059, 0.004544
0.047059, 0.004686
0.047683, 0.004833
0.047683, 0.004985
0.047683, 0.005141
0.048314, 0.005302
0.048314, 0.005469
0.048955, 0.00564
0.048955, 0.005817
0.048955, 0.005999
0.049603, 0.006188
0.049603, 0.006382
0.050261, 0.006582
0.050261, 0.006788
0.050927, 0.007001
0.050927, 0.00722
0.051601, 0.007447
0.051601, 0.00768
0.052285, 0.007921
0.052285, 0.00817
0.052978, 0.008426
0.05368, 0.00869
0.05368, 0.008963
0.054391, 0.009244
0.054391, 0.009533
0.055112, 0.009833
0.055112, 0.010141
0.055842, 0.010459
0.055842, 0.010787
0.056582, 0.011125
0.057332, 0.011474
0.057332, 0.011834
0.058092, 0.012205
0.058092, 0.012588
0.058862, 0.012982
0.058862, 0.013389
0.059642, 0.013809
0.059642, 0.014242
0.060432, 0.014689
0.061233, 0.01515
0.061233, 0.015625
0.062044, 0.016115
0.062866, 0.01662
0.062866, 0.017141
0.063699, 0.017679
0.064544, 0.018234
0.064544, 0.018805
0.065399, 0.019395
0.066265, 0.020003
0.066265, 0.020631
0.067144, 0.021278
0.068033, 0.021945
0.068033, 0.022633
0.068935, 0.023343
0.069848, 0.024075
0.069848, 0.02483
0.070774, 0.025609
0.071712, 0.026412
0.071712, 0.02724
0.072662, 0.028095
0.073625, 0.028976
0.0746, 0.029885
0.0746, 0.030822
0.075589, 0.031789
0.076591, 0.032786
0.077605, 0.033814
0.077605, 0.034874
0.078634, 0.035968
0.079676, 0.037096
0.080732, 0.03826
0.081801, 0.03946
0.081801, 0.040697
0.082885, 0.041974
0.083984, 0.04329
0.085097, 0.044648
0.086224, 0.046049
0.086224, 0.047492
0.087367, 0.048982
0.088524, 0.050519
0.089698, 0.052104
0.090886, 0.053738
0.09209, 0.055424
0.09209, 0.057161
0.093311, 0.058954
0.094547, 0.060803
0.0958, 0.062711
0.09707, 0.064678
0.098355, 0.066707
0.099659, 0.068799
0.10098, 0.070957
0.10098, 0.073182
0.102318, 0.075477
0.103674, 0.077845
0.105048, 0.080287
0.10644, 0.082805
0.10785, 0.085403
0.109279, 0.088082
0.110727, 0.090845
0.110727, 0.093693
0.112194, 0.096632
0.113681, 0.099663
0.115188, 0.102789
0.116714, 0.106014
0.118261, 0.109339
0.119828, 0.112769
0.121415, 0.116307
0.123024, 0.119955
0.124655, 0.123718
0.126306, 0.127599
0.126306, 0.131599
0.12798, 0.135727
0.129676, 0.139984
0.131394, 0.144375
0.133135, 0.148904
0.1349, 0.153575
0.136687, 0.158393
0.138499, 0.163361
0.140334, 0.168486
0.142193, 0.173771
0.144078, 0.179222
0.145987, 0.184844
0.147921, 0.190642
0.149881, 0.196623
0.151868, 0.202791
0.15388, 0.209152
0.155919, 0.215713
0.155919, 0.222475
0.157985, 0.222479
0.157985, 0.229453
0.160079, 0.229458
0.160079, 0.236651
0.1622, 0.236656
0.1622, 0.244075
0.164349, 0.24408
0.164349, 0.251731
0.166527, 0.259628
0.168734, 0.267772
0.17097, 0.276171
0.173235, 0.284835
0.17553, 0.284841
0.177857, 0.293776
0.180214, 0.302991
0.182602, 0.312495
0.18502, 0.322298
0.187473, 0.332409
0.189957, 0.342836
0.192474, 0.35359
0.195025, 0.364682
0.197609, 0.376122
0.200228, 0.38792
0.202881, 0.400089
0.205569, 0.400097
0.208293, 0.412648
0.211054, 0.425592
0.21385, 0.438943
0.216683, 0.452712
0.219555, 0.466913
0.222465, 0.481559
0.225413, 0.496665
0.2284, 0.512245
0.231426, 0.528314
0.234493, 0.528325
0.2376, 0.544897
0.240749, 0.561991
0.243939, 0.57962
0.247171, 0.597802
0.250446, 0.616554
0.253765, 0.616566
0.257128, 0.635908
0.260535, 0.655856
0.263988, 0.676429
0.267486, 0.697648
0.27103, 0.719533
0.274622, 0.719548
0.278261, 0.742119
0.281947, 0.765399
0.285684, 0.789409
0.28947, 0.814172
0.293306, 0.814189
0.297192, 0.839729
0.30113, 0.86607
0.305121, 0.893238
0.309164, 0.893257
0.313261, 0.921277
0.317412, 0.950177
0.321618, 0.950197
0.32588, 0.980004
0.330198, 1.010745
0.334573, 1.042451
0.339007, 1.042473
0.343499, 1.075175
0.34805, 1.108902
0.352663, 1.108925
0.357336, 1.143711
0.362071, 1.179588
0.366869, 1.179613
0.371731, 1.216616
0.376657, 1.25478
0.381648, 1.294141
0.386705, 1.294168
0.391829, 1.334765
0.397021, 1.334793
0.402282, 1.376663
0.407613, 1.419849
0.413014, 1.419879
0.418487, 1.464419
0.424033, 1.46445
0.429652, 1.510387
0.435344, 1.557767
0.441114, 1.557799
0.446959, 1.606666
0.452882, 1.606701
0.458883, 1.657101
0.464964, 1.709083
0.471125, 1.709119
0.477368, 1.762732
0.483694, 1.76277
0.490103, 1.818066
0.496598, 1.818104
0.503178, 1.875136
0.509846, 1.875176
0.516602, 1.933997
0.523448, 1.934038
0.530384, 1.994708
0.537412, 1.99475
0.544533, 2.057323
0.551749, 2.057367
0.55906, 2.121904
0.566469, 2.121949
0.573975, 2.188512
0.581581, 2.188559
0.589287, 2.257211
0.597096, 2.257259
0.605008, 2.328066
0.613025, 2.328116
0.621149, 2.328166
0.62938, 2.401198
0.637719, 2.401249
0.64617, 2.476573
0.654733, 2.476626
0.663409, 2.554315
0.6722, 2.554369
0.681107, 2.554422
0.690132, 2.634552
0.699278, 2.634608
0.708543, 2.634664
0.717933, 2.717311
0.727446, 2.717368
0.737086, 2.802609
0.746853, 2.802668
0.75675, 2.802728
0.766778, 2.890646
0.776938, 2.890708
0.787234, 2.890769
0.797664, 2.981449
0.808235, 2.981512
0.818945, 2.981576
0.829797, 3.075104
0.840793, 3.075169
0.851935, 3.075235
0.863224, 3.171701
0.874662, 3.171769
0.886253, 3.171835
0.897997, 3.171903
0.909896, 3.271402
0.921953, 3.271471
0.93417, 3.271541
0.946549, 3.374165
0.959092, 3.374237
0.971801, 3.374309
0.984678, 3.480157
0.997727, 3.480231
1.010948, 3.480304
1.024344, 3.480378
1.037918, 3.589554
1.051671, 3.58963
1.065607, 3.589706
1.079728, 3.589782
1.094035, 3.702389
1.108533, 3.702468
1.123222, 3.702547
1.138106, 3.702625
1.153187, 3.818772
1.168468, 3.818853
1.183952, 3.818934
1.199641, 3.819015
1.215537, 3.819096
1.231644, 3.938896
1.247965, 3.93898
1.264502, 3.939064
1.281258, 3.939147
1.298236, 3.939231
1.31544, 4.0628
1.332871, 4.062886
1.350533, 4.062972
1.368429, 4.063059
1.386562, 4.063145
1.404936, 4.190601
1.423553, 4.19069
1.442416, 4.190779
1.46153, 4.190868
1.480897, 4.190956
1.500521, 4.322422
1.520404, 4.322514
1.540551, 4.322605
1.560966, 4.322697
1.58165, 4.322789
1.602609, 4.32288
1.623845, 4.458484
1.645363, 4.458579
1.667166, 4.458673
1.689258, 4.458768
1.711643, 4.458861
1.734324, 4.458957
1.757306, 4.459051
1.780592, 4.598927
1.804187, 4.599024
1.828094, 4.599122
1.852319, 4.599219
1.876863, 4.599317
1.901735, 4.599414
1.926934, 4.599512
1.952469, 4.743793
1.978342, 4.743894
2.004557, 4.743994
2.03112, 4.744095
2.058034, 4.744196
2.085306, 4.744295
2.112938, 4.744397
2.140937, 4.893222
2.169307, 4.893327
2.198053, 4.893431
2.22718, 4.893534
2.256693, 4.893638
2.286596, 4.893742
2.316896, 5.047253
2.347598, 5.04736
2.378706, 5.047467
2.410227, 5.047574
2.442165, 5.047681
2.474527, 5.047788
2.507317, 5.206132
2.540541, 5.206242
2.574207, 5.206352
2.608318, 5.206463
2.642882, 5.206573
2.677903, 5.369897
2.713388, 5.37001
2.749344, 5.370125
2.785776, 5.370239
2.82269, 5.370353
2.860094, 5.370467
2.897994, 5.538932
2.936396, 5.53905
2.975306, 5.539167
3.014733, 5.539283
3.054681, 5.713045
3.095159, 5.713166
3.136174, 5.713288
3.177732, 5.713409
3.21984, 5.71353
3.262507, 5.892757
3.305739, 5.892882
3.349544, 5.893006
3.393929, 5.893132
3.438903, 6.077993
3.484472, 6.078122
3.530646, 6.078251
3.577431, 6.07838
3.624836, 6.269052
3.672869, 6.269185
3.721539, 6.269317
3.770854, 6.465979
3.820822, 6.466116
3.871452, 6.466253
3.922753, 6.46639
3.974734, 6.669233
4.027404, 6.669375
4.080772, 6.669516
4.134847, 6.878731
4.189638, 6.878878
4.245156, 6.879024
4.301409, 6.879169
4.358408, 7.094961
4.416162, 7.095112
4.474681, 7.317678
4.533976, 7.317833
4.594056, 7.317988
4.654933, 7.318143
4.716616, 7.547705
4.779116, 7.547865
4.842446, 7.784633
4.906614, 7.784797
4.971632, 7.784962
5.037512, 8.029169
5.104265, 8.029339
5.171902, 8.029509
5.240436, 8.281386
5.309877, 8.281562
5.38024, 8.541345
5.451534, 8.541526
5.523773, 8.541707
5.59697, 8.809651
5.671136, 8.809838
5.746284, 8.810025
5.82243, 9.086385
5.899584, 9.086578
5.977761, 9.371614
6.056973, 9.371813
6.137235, 9.665796
6.21856, 9.666001
6.300962, 9.666205
6.384458, 9.969424
6.46906, 9.969635
6.554781, 10.282372
6.641641, 10.28259
6.72965, 10.605143
6.818826, 10.605368
6.909183, 10.938047
7.000738, 10.938279
7.093506, 11.281401
7.187503, 11.28164
7.282746, 11.635532
7.379251, 11.635778
7.477034, 12.000781
7.576114, 12.001035
7.676506, 12.377494
7.778229, 12.377756
7.881299, 12.766033
7.985736, 12.766303
8.091556, 13.166769
8.198778, 13.167048
8.307421, 13.580083
8.417505, 13.580371
8.529046, 14.006373
8.642066, 14.00667
8.756584, 14.446043
8.872618, 14.8992
8.990191, 14.899516
9.109321, 15.366897
9.230031, 15.367223
9.352339, 15.849276
9.476268, 16.34645
9.60184, 16.346795
9.729076, 16.859577
9.857997, 16.859935
9.988627, 17.388812
10.120988, 17.93428
10.255103, 17.93466
10.390995, 18.49725
10.528687, 19.077489
10.668205, 19.077894
10.809571, 19.676346
10.95281, 20.293572
11.097948, 20.294001
11.245008, 20.930602
11.394018, 21.587172
11.545002, 22.264338
11.697986, 22.26481
11.852998, 22.963233
12.010064, 23.683564
12.169212, 23.684066
12.330468, 24.427009
12.49386, 25.193257
12.659419, 25.983542
12.82717, 26.798617
12.997145, 26.799185
13.169373, 27.639846
13.343883, 28.506878
13.520703, 29.401107
13.699869, 30.323388
13.881409, 30.32403
14.065353, 31.275262
14.251736, 32.256332
14.440588, 33.268178
14.631942, 34.311764
14.825832, 35.388086
15.022292, 35.388836
15.221355, 36.498945
15.423055, 37.643877
15.627429, 38.824724
15.834509, 40.042613
16.044336, 41.298706
16.256942, 42.594201
16.472365, 43.930334
16.690643, 43.931265
16.911814, 45.30934
17.135915, 46.730643
17.362986, 48.196533
17.593065, 49.708406
17.826194, 51.267704
18.062412, 52.875915
18.301759, 52.877036
18.544279, 54.53573
18.790012, 56.246456
19.039002, 58.010845
19.291291, 59.830582
19.546923, 61.707401
19.805942, 63.643095
20.068394, 65.639508
20.334323, 67.698547
20.603777, 69.822176
20.8768, 72.012421
21.153442, 74.271372
21.43375, 76.601183
21.717772, 79.004078
22.005558, 81.482349
22.297157, 81.484076
22.59262, 84.040141
22.891998, 86.676388
22.891998, 89.393436
23.195344, 89.395331
23.195344, 92.19761
23.502708, 92.199564
23.502708, 95.089747
23.814147, 95.091763
23.814147, 98.072608
24.129713, 98.074687
24.449459, 101.151182
24.773442, 104.324183
25.10172, 107.596718
25.434347, 110.971909
25.77138, 114.452975
26.112882, 118.043239
26.458908, 118.045741
26.809518, 121.748705
27.164776, 125.567829
27.524741, 129.506754
27.889476, 133.569238
28.259044, 137.759158
28.633509, 142.080511
29.012936, 146.53742
29.397391, 151.134138
29.786941, 151.137342
30.181652, 155.878353
30.581594, 160.768086
30.986836, 165.811204
31.397447, 171.012519
31.8135, 176.376993
32.235066, 181.909745
32.662218, 181.9136
33.09503, 187.620031
33.533577, 193.505465
33.977936, 199.575518
34.428184, 199.579748
34.884396, 205.840345
35.346656, 212.297331
35.81504, 218.956864
36.289631, 225.8253
36.770511, 225.830087
37.257762, 232.914128
37.751471, 240.220388
38.251722, 247.755837
38.758602, 247.761088
39.272198, 255.533081
39.7926, 263.548873
40.319898, 263.554459
40.854184, 271.821872
41.395549, 280.348625
41.944088, 289.142853
42.499896, 289.148982
43.063069, 298.219266
43.633704, 298.225588
44.211902, 307.580597
44.797761, 317.229061
45.391383, 317.235786
45.992872, 327.187123
46.60233, 337.450623
47.219865, 337.457776
47.845583, 348.043455
48.479593, 348.050832
49.122004, 358.968804
49.772927, 370.22926
50.432476, 370.237108
51.100765, 381.851038
51.777909, 381.859132
52.464027, 393.837632
53.159236, 393.845981
53.863658, 406.200496
54.577414, 406.209106
55.300628, 418.951439
56.033425, 418.960319
56.775933, 432.102643
57.52828, 432.111802
58.290597, 445.666674
59.063015, 445.67612
59.845667, 459.65649
60.638693, 459.666233
61.442226, 474.085457
62.256407, 474.095506
63.081376, 474.105555
63.917278, 488.977724
64.764256, 488.988089
65.622457, 504.327107
66.49203, 504.337797
67.373127, 504.348487
68.2659, 520.169344
69.170502, 520.18037
70.087091, 536.497856
71.015827, 536.509228
71.956869, 536.5206
72.910381, 553.350661
73.876528, 553.36239
74.855478, 553.374118
75.8474, 570.732856
76.852466, 570.744954
77.87085, 570.757051
78.902729, 588.661071
79.948281, 588.67355
81.007689, 588.686027
82.081135, 588.698506
83.168805, 607.16533
84.270889, 607.1782
85.387576, 607.19107
86.51906, 607.203941
87.665538, 626.25126
88.827208, 626.264534
90.004272, 626.277809
91.196933, 626.291084
92.405398, 645.937146
93.629877, 645.950838
94.870581, 645.964529
96.127726, 645.978222
97.40153, 666.241848
98.692213, 666.25597
100.0, 666.270092
101.325116, 666.284215
102.667791, 666.298338
104.028259, 666.31246
105.406754, 687.21395
106.803516, 687.228516
108.218786, 687.243083
109.652811, 687.25765
111.105838, 687.272218
112.578119, 687.286786
114.06991, 687.301354
