# Matter power spectrum P(k) at redshift z=0.9
# for k=1.03955e-05 to 5215.48 h/Mpc,
# number of wavenumbers equal to 149
#    1:k (h/Mpc)              2:P (Mpc/h)^3        
       1.039554593366e-05       1.976581643936e+01 
       1.308721694535e-05       2.469926971822e+01 
       1.647582998217e-05       3.086406703276e+01 
       2.074184104495e-05       3.856750196296e+01 
       2.611243077888e-05       4.819355841138e+01 
       3.287360267125e-05       6.022197820182e+01 
       4.138541378007e-05       7.525211079076e+01 
       5.210114908534e-05       9.403264839610e+01 
       6.559146056721e-05       1.174986255751e+02 
       8.257475650476e-05       1.468174382078e+02 
       1.039554593366e-04       1.834458292356e+02 
       1.308721694535e-04       2.292001484623e+02 
       1.647582998217e-04       2.863422632914e+02 
       2.074184104495e-04       3.576832973606e+02 
       2.611243077888e-04       4.467063858301e+02 
       3.287360267125e-04       5.577073767969e+02 
       4.138541378007e-04       6.959480405623e+02 
       5.210114908534e-04       8.678096724017e+02 
       6.559146056721e-04       1.080926967173e+03 
       8.257475650476e-04       1.344275396859e+03 
       1.039554593366e-03       1.668175418889e+03 
       1.308721694535e-03       2.064129977360e+03 
       1.647582998217e-03       2.544230345215e+03 
       2.074184104495e-03       3.120190627667e+03 
       2.611243077888e-03       3.801442016265e+03 
       3.287360267125e-03       4.592500629250e+03 
       4.138541378007e-03       5.489227419901e+03 
       5.210114908534e-03       6.473827761262e+03 
       6.559146056721e-03       7.509016760413e+03 
       8.257475650476e-03       8.531163741696e+03 
       1.039554593366e-02       9.443824056161e+03 
       1.308721694535e-02       1.011425385214e+04 
       1.647582998214e-02       1.037917357289e+04 
       2.074184088572e-02       1.007769189325e+04 
       2.611230840193e-02       9.134390783470e+03 
       3.285653182045e-02       7.693126317261e+03 
       4.081332843164e-02       6.248734135202e+03 
       4.754021716107e-02       5.420471760007e+03 
       5.241547480738e-02       5.014642842251e+03 
       5.643282856264e-02       4.762189976057e+03 
       6.001833682243e-02       4.571808913526e+03 
       6.336166044928e-02       4.405658340591e+03 
       6.656307139837e-02       4.244275193196e+03 
       6.968264494082e-02       4.077457960545e+03 
       7.275981836318e-02       3.900379469581e+03 
       7.582237227446e-02       3.711823206058e+03 
       7.889102481454e-02       3.513286009712e+03 
       8.198198315273e-02       3.308432284710e+03 
       8.510845469814e-02       3.102433363778e+03 
       8.828158949124e-02       2.900857698258e+03 
       9.151109307600e-02       2.709541492960e+03 
       9.480563909718e-02       2.533725025099e+03 
       9.817315512484e-02       2.377258326832e+03 
       1.016210253698e-01       2.242667839118e+03 
       1.051562372192e-01       2.130375366079e+03 
       1.087854887544e-01       2.039059994478e+03 
       1.125152685187e-01       1.965347097610e+03 
       1.163519151387e-01       1.904313017898e+03 
       1.203016620718e-01       1.849848852609e+03 
       1.243706712418e-01       1.795113847550e+03 
       1.285650583271e-01       1.734001734695e+03 
       1.328909118087e-01       1.662071573955e+03 
       1.373543074419e-01       1.577695681787e+03 
       1.419613195248e-01       1.482572228623e+03 
       1.467180301457e-01       1.381438578971e+03 
       1.516305374617e-01       1.281009935365e+03 
       1.567049639876e-01       1.188224958749e+03 
       1.619474658202e-01       1.108608905379e+03 
       1.673642436914e-01       1.044714867063e+03 
       1.729615567289e-01       9.958125225566e+02 
       1.787457397832e-01       9.576336636897e+02 
       1.847232251771e-01       9.240556933516e+02 
       1.909005697246e-01       8.882738290328e+02 
       1.972844878737e-01       8.449035143961e+02 
       2.038818918359e-01       7.930899623341e+02 
       2.106999396018e-01       7.365262224673e+02 
       2.177460917977e-01       6.813610037270e+02 
       2.250281784350e-01       6.329375834040e+02 
       2.325544767517e-01       5.941516940171e+02 
       2.403338015606e-01       5.642293219329e+02 
       2.483756098215e-01       5.389439954883e+02 
       2.566901215724e-01       5.129937717937e+02 
       2.652884599139e-01       4.832106697064e+02 
       2.741828134909e-01       4.500475405966e+02 
       2.833866259052e-01       4.170841566020e+02 
       2.929148178032e-01       3.884076245428e+02 
       3.027840491167e-01       3.651735987302e+02 
       3.130130312448e-01       3.453705508682e+02 
       3.236229020692e-01       3.257790073145e+02 
       3.346376808976e-01       3.045529369662e+02 
       3.460848262041e-01       2.828455311420e+02 
       3.579959270564e-01       2.629562116519e+02 
       3.704075704423e-01       2.459660848412e+02 
       3.833624429267e-01       2.305601405075e+02 
       3.969107487182e-01       2.150939459510e+02 
       4.111120613410e-01       1.994735058381e+02 
       4.260377793153e-01       1.848753836842e+02 
       4.417744386818e-01       1.717080680434e+02 
       4.584282660567e-01       1.592675151881e+02 
       4.761315693280e-01       1.469176860822e+02 
       4.950519218633e-01       1.351318075637e+02 
       5.154057199787e-01       1.241928555621e+02 
       5.374788205876e-01       1.135551504607e+02 
       5.616590926020e-01       1.032374725483e+02 
       5.884899305890e-01       9.337612085051e+01 
       6.187626138371e-01       8.369566283387e+01 
       6.536851165952e-01       7.422554585622e+01 
       6.952121405854e-01       6.478814638935e+01 
       7.467418170057e-01       5.527176057194e+01 
       8.147051579372e-01       4.546486892887e+01 
       9.123223049594e-01       3.518034291476e+01 
       1.066600871110e+00       2.457610282524e+01 
       1.312333712991e+00       1.514793847994e+01 
       1.649322590380e+00       8.801590023062e+00 
       2.076320274967e+00       5.048085648580e+00 
       2.613932154499e+00       2.871208891844e+00 
       3.290745613896e+00       1.621040824444e+00 
       4.142803277084e+00       9.089946090816e-01 
       5.215480321585e+00       5.066209654261e-01 
       6.565900711556e+00       2.807566634698e-01 
       8.265979257096e+00       1.547893766037e-01 
       1.040625134012e+01       8.493517475850e-02 
       1.310069425360e+01       4.640087136031e-02 
       1.649279690800e+01       2.524605116880e-02 
       2.076320113904e+01       1.368303144431e-02 
       2.613932154413e+01       7.389222636877e-03 
       3.290745613896e+01       3.976360662989e-03 
       4.142803277084e+01       2.132332775137e-03 
       5.215480321585e+01       1.139359565573e-03 
       6.565900711556e+01       6.063983739332e-04 
       8.265979257096e+01       3.212894435773e-04 
       1.040625134012e+02       1.692916244054e-04 
       1.310069425360e+02       8.855834736382e-05 
       1.649279690800e+02       4.587620162205e-05 
       2.076320113904e+02       2.344558184513e-05 
       2.613932154413e+02       1.176294835595e-05 
       3.290745613896e+02       5.758922294935e-06 
       4.142803277084e+02       2.737592369512e-06 
       5.215480321585e+02       1.262789618688e-06 
       6.565900711556e+02       5.705143939182e-07 
       8.265979257096e+02       2.580334212644e-07 
       1.040625134012e+03       1.204567994123e-07 
       1.310069425360e+03       5.920100630701e-08 
       1.649279690800e+03       3.004223298170e-08 
       2.076320113904e+03       1.482474676837e-08 
       2.613932154413e+03       7.220767890382e-09 
       3.290745613896e+03       3.788046109271e-09 
       4.142803277084e+03       1.885218162580e-09 
       5.215480321585e+03       9.905347827710e-10 
