# Matter power spectrum P(k) at redshift z=1.75
# for k=1.03822e-05 to 10392.9 h/Mpc,
# number of wavenumbers equal to 152
#    1:k (h/Mpc)              2:P (Mpc/h)^3        
       1.038219230196e-05       1.086585638863e+01 
       1.307040571907e-05       1.355387258109e+01 
       1.645466590220e-05       1.690684228707e+01 
       2.071519704687e-05       2.108924304655e+01 
       2.607888797262e-05       2.630623269376e+01 
       3.283137478007e-05       3.281368367027e+01 
       4.133225201477e-05       4.093069458384e+01 
       5.203422238807e-05       5.105518145211e+01 
       6.550720484729e-05       6.368323560708e+01 
       8.246868483786e-05       7.943315471097e+01 
       1.038219230196e-04       9.907518824364e+01 
       1.307040571907e-04       1.235681386391e+02 
       1.645466590220e-04       1.541040924377e+02 
       2.071519704687e-04       1.921623945287e+02 
       2.607888797262e-04       2.395735005635e+02 
       3.283137478007e-04       2.985921059414e+02 
       4.133225201477e-04       3.719765044957e+02 
       5.203422238807e-04       4.630670214769e+02 
       6.550720484729e-04       5.758508054692e+02 
       8.246868483786e-04       7.149951308364e+02 
       1.038219230196e-03       8.858291466292e+02 
       1.307040571907e-03       1.094246448891e+03 
       1.645466590220e-03       1.346419002761e+03 
       2.071519704687e-03       1.648296120023e+03 
       2.607888797262e-03       2.004557040917e+03 
       3.283137478007e-03       2.417253897901e+03 
       4.133225201477e-03       2.883865011972e+03 
       5.203422238807e-03       3.392282463768e+03 
       6.550720484729e-03       3.926471589493e+03 
       8.246868483786e-03       4.451437666193e+03 
       1.038219230196e-02       4.916712375994e+03 
       1.307040571907e-02       5.253874924633e+03 
       1.645466590218e-02       5.379260487387e+03 
       2.071519688507e-02       5.211593075007e+03 
       2.607876417226e-02       4.714721027188e+03 
       3.281416722823e-02       3.965542002194e+03 
       4.075744376176e-02       3.220036045132e+03 
       4.746658777003e-02       2.793813907334e+03 
       5.233009061300e-02       2.584504028110e+03 
       5.633876997938e-02       2.453843242782e+03 
       5.991701375256e-02       2.355129141659e+03 
       6.325382191649e-02       2.268820532785e+03 
       6.644915140549e-02       2.185177989733e+03 
       6.956290348649e-02       2.099051342700e+03 
       7.263440849079e-02       2.007976834985e+03 
       7.569137574516e-02       1.911375874094e+03 
       7.875447272837e-02       1.810053346757e+03 
       8.183986863846e-02       1.705849560392e+03 
       8.496074110659e-02       1.601298566291e+03 
       8.812821588611e-02       1.499260129268e+03 
       9.135197802118e-02       1.402617290359e+03 
       9.464068332738e-02       1.313874602781e+03 
       9.800224345987e-02       1.234996295853e+03 
       1.014440281024e-01       1.167080823467e+03 
       1.049730111281e-01       1.110357803561e+03 
       1.085958778455e-01       1.064086671516e+03 
       1.123191045667e-01       1.026550295967e+03 
       1.161490180798e-01       9.952457044406e+02 
       1.200918402850e-01       9.670761644913e+02 
       1.241537217471e-01       9.387567388141e+02 
       1.283407669205e-01       9.072772806827e+02 
       1.326590531502e-01       8.704693657477e+02 
       1.371146451078e-01       8.276359969297e+02 
       1.417136060343e-01       7.796578350266e+02 
       1.464620069664e-01       7.289074984820e+02 
       1.513659349991e-01       6.786919487437e+02 
       1.564315015614e-01       6.323766980592e+02 
       1.616648516253e-01       5.926018908054e+02 
       1.670721747463e-01       5.605786498544e+02 
       1.726597188044e-01       5.358304614062e+02 
       1.784338073098e-01       5.162569567312e+02 
       1.844008611238e-01       4.988641068958e+02 
       1.905674254422e-01       4.803293207146e+02 
       1.969402028920e-01       4.581626324408e+02 
       2.035260936059e-01       4.320103528185e+02 
       2.103322431697e-01       4.037123908007e+02 
       2.173660993969e-01       3.762124712286e+02 
       2.246354789811e-01       3.520737365026e+02 
       2.321486452227e-01       3.325775977279e+02 
       2.399143982438e-01       3.173136299275e+02 
       2.479421794051e-01       3.042349224688e+02 
       2.562421920582e-01       2.908218973655e+02 
       2.648255413223e-01       2.756168018520e+02 
       2.737043963274e-01       2.588934546652e+02 
       2.828921793508e-01       2.423722984914e+02 
       2.924037875840e-01       2.279305383551e+02 
       3.022558549994e-01       2.160746883477e+02 
       3.124670640937e-01       2.058136244809e+02 
       3.230585203843e-01       1.956556201131e+02 
       3.340542067337e-01       1.847670090111e+02 
       3.454815403454e-01       1.737225285747e+02 
       3.573720632874e-01       1.635731945560e+02 
       3.697623087076e-01       1.547806267610e+02 
       3.826949011147e-01       1.467193899591e+02 
       3.962199727176e-01       1.386417704584e+02 
       4.103970129069e-01       1.305344388070e+02 
       4.252973211223e-01       1.229239439493e+02 
       4.410073157209e-01       1.159735626780e+02 
       4.576330822164e-01       1.093572740376e+02 
       4.753067575460e-01       1.027971794877e+02 
       4.941957055755e-01       9.650069701909e+01 
       5.145160626260e-01       9.058292500106e+01 
       5.365533585280e-01       8.479104463410e+01 
       5.606950447507e-01       7.913364944041e+01 
       5.874839753840e-01       7.365059908884e+01 
       6.177107211601e-01       6.820950423330e+01 
       6.525823218278e-01       6.279765009566e+01 
       6.940522612693e-01       5.730656809163e+01 
       7.455171781678e-01       5.163200317937e+01 
       8.134065949556e-01       4.559234110230e+01 
       9.109395868563e-01       3.895075754545e+01 
       1.065113380274e+00       3.156534763092e+01 
       1.310628484582e+00       2.412742444534e+01 
       1.647201751434e+00       1.808805950448e+01 
       2.073650984165e+00       1.354734829837e+01 
       2.610571719889e+00       1.007983404234e+01 
       3.286515077374e+00       7.398511648027e+00 
       4.137477347151e+00       5.325614515470e+00 
       5.208775373051e+00       3.742688949349e+00 
       6.557459681462e+00       2.560136765720e+00 
       8.255352629808e+00       1.701804723025e+00 
       1.039287320899e+01       1.099465352982e+00 
       1.308385218435e+01       6.918737790241e-01 
       1.647159399903e+01       4.256429946451e-01 
       2.073650825814e+01       2.570514378666e-01 
       2.610571719805e+01       1.529771869987e-01 
       3.286515077374e+01       9.001617073249e-02 
       4.137477347151e+01       5.251684145658e-02 
       5.208775373051e+01       3.044443308622e-02 
       6.557459681462e+01       1.756615870706e-02 
       8.255352629808e+01       1.010076341166e-02 
       1.039287320899e+02       5.793588330569e-03 
       1.308385218435e+02       3.317084702398e-03 
       1.647159399903e+02       1.896703227997e-03 
       2.073650825814e+02       1.083514036977e-03 
       2.610571719805e+02       6.185524908355e-04 
       3.286515077374e+02       3.529457850045e-04 
       4.137477347151e+02       2.013206271719e-04 
       5.208775373051e+02       1.148048106651e-04 
       6.557459681462e+02       6.545669901989e-05 
       8.255352629808e+02       3.731576263536e-05 
       1.039287320899e+03       2.127112891871e-05 
       1.308385218435e+03       1.212439499145e-05 
       1.647159399903e+03       6.910493316383e-06 
       2.073650825814e+03       3.938612777218e-06 
       2.610571719805e+03       2.244744687981e-06 
       3.286515077374e+03       1.279331355769e-06 
       4.137477347151e+03       7.291110930454e-07 
       5.208775373051e+03       4.155281730605e-07 
       6.557459681462e+03       2.368124073222e-07 
       8.255352629808e+03       1.349604228551e-07 
       1.039287320899e+04       7.691427910824e-08 
