# Matter power spectrum P(k) at redshift z=3.5
# for k=1.03902e-05 to 10400.9 h/Mpc,
# number of wavenumbers equal to 152
#    1:k (h/Mpc)              2:P (Mpc/h)^3        
       1.039020730028e-05       3.871304889291e+00 
       1.308049600413e-05       4.837899748411e+00 
       1.646736881847e-05       6.045831571970e+00 
       2.073118907096e-05       7.555352762572e+00 
       2.609902073814e-05       9.441754279232e+00 
       3.285672043019e-05       1.179911511066e+01 
       4.136416029779e-05       1.474498303997e+01 
       5.207439253641e-05       1.842621359269e+01 
       6.555777606783e-05       2.302624614651e+01 
       8.253235023250e-05       2.877415745374e+01 
       1.039020730028e-04       3.595589494483e+01 
       1.308049600413e-04       4.492815924984e+01 
       1.646736881847e-04       5.613544520364e+01 
       2.073118907096e-04       7.013073746608e+01 
       2.609902073814e-04       8.760021010775e+01 
       3.285672043019e-04       1.093918710208e+02 
       4.136416029779e-04       1.365471920407e+02 
       5.207439253641e-04       1.703330937754e+02 
       6.555777606783e-04       2.122689540870e+02 
       8.253235023250e-04       2.641399104518e+02 
       1.039020730028e-03       3.279852444525e+02 
       1.308049600413e-03       4.060514314106e+02 
       1.646736881847e-03       5.006857399920e+02 
       2.073118907096e-03       6.141874537212e+02 
       2.609902073814e-03       7.484269221593e+02 
       3.285672043019e-03       9.042885412557e+02 
       4.136416029779e-03       1.080954685708e+03 
       5.207439253641e-03       1.274917327447e+03 
       6.555777606783e-03       1.478817527103e+03 
       8.253235023250e-03       1.680126770754e+03 
       1.039020730028e-02       1.859877380312e+03 
       1.308049600413e-02       1.991838927043e+03 
       1.646736881845e-02       2.043885131388e+03 
       2.073118891276e-02       1.984329077967e+03 
       2.609889896706e-02       1.798338266301e+03 
       3.283971297933e-02       1.514226705228e+03 
       4.079356262944e-02       1.229575383267e+03 
       4.752015166632e-02       1.066374805266e+03 
       5.239481028097e-02       9.864669047220e+02 
       5.641131911577e-02       9.368010913591e+02 
       5.999590757796e-02       8.993809752996e+02 
       6.333828390374e-02       8.666858700189e+02 
       6.653873314774e-02       8.349442801335e+02 
       6.965733331224e-02       8.021354088245e+02 
       7.273352095174e-02       7.672942794606e+02 
       7.579507475039e-02       7.301820499251e+02 
       7.886271054522e-02       6.911089748397e+02 
       8.195263312834e-02       6.507913525244e+02 
       8.507804756739e-02       6.102244732542e+02 
       8.825010163054e-02       5.705431832597e+02 
       9.147849866152e-02       5.328865572138e+02 
       9.477191016850e-02       4.982709860231e+02 
       9.813826163670e-02       4.674807672863e+02 
       1.015849352320e-01       4.409868770095e+02 
       1.051189163259e-01       4.188950200038e+02 
       1.087469010046e-01       4.009307786869e+02 
       1.124753758293e-01       3.864444393006e+02 
       1.163106774523e-01       3.744584659887e+02 
       1.202590373600e-01       3.637509260357e+02 
       1.243266155048e-01       3.530024197724e+02 
       1.285195255917e-01       3.409950107350e+02 
       1.328438541235e-01       3.268559218780e+02 
       1.373056748713e-01       3.102624205753e+02 
       1.419110601419e-01       2.915490146352e+02 
       1.466660900219e-01       2.716516854554e+02 
       1.515768606555e-01       2.518849315353e+02 
       1.566494925298e-01       2.336255105557e+02 
       1.618901396942e-01       2.179552110254e+02 
       1.673050008094e-01       2.053919726704e+02 
       1.729003328998e-01       1.957762398048e+02 
       1.786824686726e-01       1.882728332286e+02 
       1.846578382555e-01       1.816847100387e+02 
       1.908329962029e-01       1.746494554034e+02 
       1.972146546215e-01       1.661255489331e+02 
       2.038097232820e-01       1.559362404450e+02 
       2.106253576112e-01       1.448129278073e+02 
       2.176690155230e-01       1.339556340135e+02 
       2.249485241370e-01       1.244330994333e+02 
       2.324721575858e-01       1.168024013432e+02 
       2.402487273220e-01       1.109194676043e+02 
       2.482876866447e-01       1.059536924273e+02 
       2.565992515763e-01       1.008566532513e+02 
       2.651945407848e-01       9.500149900460e+01 
       2.740857379920e-01       8.847858347006e+01 
       2.832862813012e-01       8.199575614219e+01 
       2.928110851822e-01       7.635406333044e+01 
       3.026768025905e-01       7.178659246239e+01 
       3.129021370022e-01       6.789399481829e+01 
       3.235082172493e-01       6.404449704008e+01 
       3.345190522418e-01       5.987103722296e+01 
       3.459620884306e-01       5.560280682629e+01 
       3.578689008861e-01       5.169279826206e+01 
       3.702760601777e-01       4.835265216192e+01 
       3.832262334513e-01       4.532466513741e+01 
       3.967696017356e-01       4.228378249358e+01 
       4.109657105973e-01       3.921226156698e+01 
       4.258859244430e-01       3.634208269650e+01 
       4.416167371343e-01       3.375420623845e+01 
       4.582643223479e-01       3.130836228876e+01 
       4.759609203735e-01       2.888124106588e+01 
       4.948740165338e-01       2.656359551251e+01 
       5.152198897967e-01       2.441364031899e+01 
       5.372842363932e-01       2.232226721808e+01 
       5.614546980844e-01       2.029440008115e+01 
       5.882743358543e-01       1.835584457062e+01 
       6.185339160756e-01       1.645326367148e+01 
       6.534405790436e-01       1.459151415060e+01 
       6.949475751758e-01       1.273652906879e+01 
       7.464502966034e-01       1.086590679686e+01 
       8.143741099258e-01       8.938391591455e+00 
       9.119268599882e-01       6.916891358690e+00 
       1.066093864103e+00       4.832340480828e+00 
       1.311666547981e+00       2.978818290141e+00 
       1.648476358058e+00       1.730910289430e+00 
       2.075254743611e+00       9.927552286900e-01 
       2.612590728999e+00       5.646901730314e-01 
       3.289056859246e+00       3.188221890200e-01 
       4.140677260941e+00       1.787918690518e-01 
       5.212803825837e+00       9.964874433754e-02 
       6.562531203044e+00       5.522708671618e-02 
       8.261737297205e+00       3.045020115981e-02 
       1.040091102902e+01       1.670978248884e-02 
       1.309397120024e+01       9.129552530825e-03 
       1.648433308529e+01       4.967792038440e-03 
       2.075254581754e+01       2.692981405893e-03 
       2.612590728913e+01       1.454624780627e-03 
       3.289056859246e+01       7.830364940947e-04 
       4.140677260941e+01       4.201176550424e-04 
       5.212803825837e+01       2.246489472812e-04 
       6.562531203044e+01       1.197057190600e-04 
       8.261737297205e+01       6.353995576624e-05 
       1.040091102902e+02       3.357436306929e-05 
       1.309397120024e+02       1.764032987068e-05 
       1.648433308529e+02       9.200013753410e-06 
       2.075254581754e+02       4.750240815447e-06 
       2.612590728913e+02       2.419741019370e-06 
       3.289056859246e+02       1.210842769275e-06 
       4.140677260941e+02       5.929518079709e-07 
       5.212803825837e+02       2.838798070071e-07 
       6.562531203044e+02       1.335225219094e-07 
       8.261737297205e+02       6.229413688949e-08 
       1.040091102902e+03       2.905329326079e-08 
       1.309397120024e+03       1.360825267914e-08 
       1.648433308529e+03       6.464340524438e-09 
       2.075254581754e+03       3.162343943643e-09 
       2.612590728913e+03       1.616693356252e-09 
       3.289056859246e+03       8.599925175695e-10 
       4.140677260941e+03       4.532274776043e-10 
       5.212803825837e+03       2.241374378687e-10 
       6.562531203044e+03       1.144893733402e-10 
       8.261737297205e+03       6.135040360061e-11 
       1.040091102902e+04       3.059460685209e-11 
       1.309397120024e+04       1.602239066897e-11 
       1.648433308529e+04       8.380161730575e-12 
       2.075254581755e+04       4.377713449586e-12 
       2.612590728914e+04       2.284217042189e-12 
       3.289056859248e+04       1.190545523367e-12 
       4.140677260944e+04       6.198621818197e-13 
       5.212803825841e+04       3.224075495994e-13 
       6.562531203050e+04       1.675310430991e-13 
       8.261737297213e+04       8.697276745330e-14 
       1.040091102903e+05       4.511136362822e-14 
       1.309397120026e+05       2.337862822190e-14 
       1.648433308531e+05       1.210590574674e-14 
       2.075254581757e+05       6.263753609803e-15 
       2.612590728917e+05       3.238502781524e-15 
       3.289056859251e+05       1.673163905470e-15 
       4.140677260948e+05       8.638314075545e-16 
       5.212803825846e+05       4.456837833206e-16 
       6.562531203056e+05       2.297960021743e-16 
       8.261737297220e+05       1.184092979623e-16 
       1.040091102904e+06       6.097702576691e-17 
       1.309397120027e+06       3.138287140858e-17 
       1.648433308532e+06       1.614260409671e-17 
       2.075254581759e+06       8.298833378959e-18 
       2.612590728919e+06       4.264132473147e-18 
       3.289056859255e+06       2.189887595223e-18 
       4.140677260952e+06       1.124080479604e-18 
       5.212803825851e+06       5.767187491961e-19 
       6.562531203062e+06       2.957523131002e-19 
       8.261737297228e+06       1.515987754728e-19 
       1.040091102905e+07       7.767342986608e-20 
       1.309397120028e+07       3.977993320478e-20 
       1.648433308534e+07       2.036459074768e-20 
       2.075254581761e+07       1.042107363467e-20 
       2.612590728922e+07       5.330638621713e-21 
       3.289056859258e+07       2.725716457957e-21 
       4.140677260956e+07       1.393224937430e-21 
       5.212803825856e+07       7.118774255911e-22 
       6.562531203068e+07       3.636107745192e-22 
       8.261737297236e+07       1.856606078604e-22 
       1.040091102906e+08       9.476721167429e-23 
       1.309397120029e+08       4.835656146558e-23 
       1.648433308535e+08       2.466693680830e-23 
       2.075254581763e+08       1.257884969315e-23 
       2.612590728924e+08       6.412624389606e-24 
       3.289056859261e+08       3.268157657378e-24 
       4.140677260959e+08       1.665120078604e-24 
       5.212803825861e+08       8.481377859866e-25 
       6.562531203074e+08       4.318852712217e-25 
       8.261737297243e+08       2.198640555293e-25 
       1.040091102907e+09       1.118990954530e-25 
       1.309397120031e+09       5.693613315770e-26 
       1.648433308537e+09       2.896282222157e-26 
       2.075254581765e+09       1.472948934523e-26 
       2.612590728926e+09       7.489118660756e-27 
       3.289056859264e+09       3.806906186040e-27 
       4.140677260963e+09       1.934702711258e-27 
       5.212803825865e+09       9.830124128191e-28 
       6.562531203080e+09       4.993539468982e-28 
       8.261737297251e+09       2.536089992299e-28 
       1.040091102908e+10       1.287743678727e-28 
       1.309397120032e+10       6.537393593778e-29 
       1.648433308538e+10       3.318119868860e-29 
       2.075254581767e+10       1.683811529600e-29 
       2.612590728929e+10       8.543002704870e-30 
       3.289056859267e+10       4.333560897614e-30 
       4.140677260967e+10       2.197850509342e-30 
       5.212803825870e+10       1.114478839235e-30 
       6.562531203086e+10       5.650247043839e-31 
       8.261737297258e+10       2.864088535247e-31 
       1.040091102909e+11       1.451544157539e-31 
       1.309397120033e+11       7.355297719721e-32 
       1.648433308540e+11       3.726471411449e-32 
       2.075254581769e+11       1.887661726828e-32 
       2.612590728931e+11       9.560501129131e-33 
       3.289056859270e+11       4.841372412711e-33 
       4.140677260971e+11       2.451257170592e-33 
       5.212803825875e+11       1.240917725682e-33 
       6.562531203092e+11       6.281045903095e-34 
       8.261737297266e+11       3.178754060790e-34 
       1.040091102910e+12       1.608492185927e-34 
