# Matter power spectrum P(k) at redshift z=10
# for k=1.03822e-05 to 10392.9 h/Mpc,
# number of wavenumbers equal to 152
#    1:k (h/Mpc)              2:P (Mpc/h)^3        
       1.038219230196e-05       6.981388649999e-01 
       1.307040571907e-05       8.708461229418e-01 
       1.645466590220e-05       1.086277550453e+00 
       2.071519704687e-05       1.355001649066e+00 
       2.607888797262e-05       1.690200677095e+00 
       3.283137478007e-05       2.108316515131e+00 
       4.133225201477e-05       2.629855652042e+00 
       5.203422238807e-05       3.280391908458e+00 
       6.550720484729e-05       4.091814519207e+00 
       8.246868483786e-05       5.103879605268e+00 
       1.038219230196e-04       6.366134860340e+00 
       1.307040571907e-04       7.940299508830e+00 
       1.645466590220e-04       9.903191927939e+00 
       2.071519704687e-04       1.235030080186e+01 
       2.607888797262e-04       1.540008176341e+01 
       3.283137478007e-04       1.919900974268e+01 
       4.133225201477e-04       2.392728945202e+01 
       5.203422238807e-04       2.980485619174e+01 
       6.550720484729e-04       3.709678484691e+01 
       8.246868483786e-04       4.611634869923e+01 
       1.038219230196e-03       5.722271184562e+01 
       1.307040571907e-03       7.080899509126e+01 
       1.645466590220e-03       8.727442867773e+01 
       2.071519704687e-03       1.069887022858e+02 
       2.607888797262e-03       1.302360326284e+02 
       3.283137478007e-03       1.571442673776e+02 
       4.133225201477e-03       1.875561752331e+02 
       5.203422238807e-03       2.208409116920e+02 
       6.550720484729e-03       2.557082116105e+02 
       8.246868483786e-03       2.899867910546e+02 
       1.038219230196e-02       3.204128793653e+02 
       1.307040571907e-02       3.425136732279e+02 
       1.645466590218e-02       3.508377739488e+02 
       2.071519688507e-02       3.400499293719e+02 
       2.607876417226e-02       3.077456637727e+02 
       3.281416722823e-02       2.588750780996e+02 
       4.075744376176e-02       2.101204966056e+02 
       4.746658777003e-02       1.821908894633e+02 
       5.233009061300e-02       1.684607033572e+02 
       5.633876997938e-02       1.598890085955e+02 
       5.991701375256e-02       1.534093044060e+02 
       6.325382191649e-02       1.477444483071e+02 
       6.644915140549e-02       1.422518334931e+02 
       6.956290348649e-02       1.365903324781e+02 
       7.263440849079e-02       1.305970577858e+02 
       7.569137574516e-02       1.242323891475e+02 
       7.875447272837e-02       1.175491949590e+02 
       8.183986863846e-02       1.106687770465e+02 
       8.496074110659e-02       1.037583644129e+02 
       8.812821588611e-02       9.700856403066e+01 
       9.135197802118e-02       9.061005511666e+01 
       9.464068332738e-02       8.473199956420e+01 
       9.800224345987e-02       7.950464664199e+01 
       1.014440281024e-01       7.500483879228e+01 
       1.049730111281e-01       7.124806597083e+01 
       1.085958778455e-01       6.818586215274e+01 
       1.123191045667e-01       6.570695345683e+01 
       1.161490180798e-01       6.364516974846e+01 
       1.200918402850e-01       6.179472489031e+01 
       1.241537217471e-01       5.993413102092e+01 
       1.283407669205e-01       5.786051851545e+01 
       1.326590531502e-01       5.542988199988e+01 
       1.371146451078e-01       5.259133420295e+01 
       1.417136060343e-01       4.940391343804e+01 
       1.464620069664e-01       4.602659617422e+01 
       1.513659349991e-01       4.268009186714e+01 
       1.564315015614e-01       3.959378140494e+01 
       1.616648516253e-01       3.694645071351e+01 
       1.670721747463e-01       3.482135611246e+01 
       1.726597188044e-01       3.318810674556e+01 
       1.784338073098e-01       3.190579215564e+01 
       1.844008611238e-01       3.077106972077e+01 
       1.905674254422e-01       2.955878760914e+01 
       1.969402028920e-01       2.809805617875e+01 
       2.035260936059e-01       2.636324181386e+01 
       2.103322431697e-01       2.447902248248e+01 
       2.173660993969e-01       2.264655838099e+01 
       2.246354789811e-01       2.104172563718e+01 
       2.321486452227e-01       1.975366438923e+01 
       2.399143982438e-01       1.875507782306e+01 
       2.479421794051e-01       1.790626944626e+01 
       2.562421920582e-01       1.703355672414e+01 
       2.648255413223e-01       1.603571986105e+01 
       2.737043963274e-01       1.493105451181e+01 
       2.828921793508e-01       1.383793789834e+01 
       2.924037875840e-01       1.288751235956e+01 
       3.022558549994e-01       1.211561664016e+01 
       3.124670640937e-01       1.145384604183e+01 
       3.230585203843e-01       1.079830224711e+01 
       3.340542067337e-01       1.009051094277e+01 
       3.454815403454e-01       9.370071245626e+00 
       3.573720632874e-01       8.711342283844e+00 
       3.697623087076e-01       8.147084330006e+00 
       3.826949011147e-01       7.633699552345e+00 
       3.962199727176e-01       7.118439346886e+00 
       4.103970129069e-01       6.599970622738e+00 
       4.252973211223e-01       6.116231807574e+00 
       4.410073157209e-01       5.679166337133e+00 
       4.576330822164e-01       5.265544265468e+00 
       4.753067575460e-01       4.855899885920e+00 
       4.941957055755e-01       4.465302201688e+00 
       5.145160626260e-01       4.102509680464e+00 
       5.365533585280e-01       3.749696918164e+00 
       5.606950447507e-01       3.408044554516e+00 
       5.874839753840e-01       3.081289281384e+00 
       6.177107211601e-01       2.760808747201e+00 
       6.525823218278e-01       2.447291180586e+00 
       6.940522612693e-01       2.135065722272e+00 
       7.455171781678e-01       1.820335952302e+00 
       8.134065949556e-01       1.496226107315e+00 
       9.109395868563e-01       1.156558402020e+00 
       1.065113380274e+00       8.067272249026e-01 
       1.310628484582e+00       4.963422946938e-01 
       1.647201751434e+00       2.878833643412e-01 
       2.073650984165e+00       1.648157304344e-01 
       2.610571719889e+00       9.357960648384e-02 
       3.286515077374e+00       5.273860350182e-02 
       4.137477347151e+00       2.952104569498e-02 
       5.208775373051e+00       1.642381330937e-02 
       6.557459681462e+00       9.085836557325e-03 
       8.255352629808e+00       5.000492205812e-03 
       1.039287320899e+01       2.739087642667e-03 
       1.308385218435e+01       1.493816482730e-03 
       1.647159399903e+01       8.113909985868e-04 
       2.073650825814e+01       4.390585701936e-04 
       2.610571719805e+01       2.367429811014e-04 
       3.286515077374e+01       1.272224083588e-04 
       4.137477347151e+01       6.814453593810e-05 
       5.208775373051e+01       3.638261467969e-05 
       6.557459681462e+01       1.936020533619e-05 
       8.255352629808e+01       1.026511676271e-05 
       1.039287320899e+02       5.420206045386e-06 
       1.308385218435e+02       2.847726927863e-06 
       1.647159399903e+02       1.486559945626e-06 
       2.073650825814e+02       7.694287547638e-07 
       2.610571719805e+02       3.937537619758e-07 
       3.286515077374e+02       1.985607005150e-07 
       4.137477347151e+02       9.838899573470e-08 
       5.208775373051e+02       4.791179831680e-08 
       6.557459681462e+02       2.306808680460e-08 
       8.255352629808e+02       1.110356180440e-08 
       1.039287320899e+03       5.382293574555e-09 
       1.308385218435e+03       2.627034730751e-09 
       1.647159399903e+03       1.294959374483e-09 
       2.073650825814e+03       6.442290260933e-10 
       2.610571719805e+03       3.234119354115e-10 
       3.286515077374e+03       1.635971379830e-10 
       4.137477347151e+03       8.326841332952e-11 
       5.208775373051e+03       4.257815770267e-11 
       6.557459681462e+03       2.184436068021e-11 
       8.255352629808e+03       1.123122978175e-11 
       1.039287320899e+04       5.781626188777e-12 
       1.308385218436e+04       3.022277712172e-12 
       1.647159399905e+04       1.577833877765e-12 
       2.073650825816e+04       8.227311556749e-13 
       2.610571719809e+04       4.284988250219e-13 
       3.286515077380e+04       2.229255532563e-13 
       4.137477347159e+04       1.158538565556e-13 
       5.208775373063e+04       6.014811189516e-14 
       6.557459681478e+04       3.119704563444e-14 
       8.255352629831e+04       1.616600789238e-14 
       1.039287320902e+05       8.369638859781e-15 
       1.308385218439e+05       4.329532501957e-15 
       1.647159399910e+05       2.237795702071e-15 
       2.073650825822e+05       1.155736782340e-15 
       2.610571719816e+05       5.964439298965e-16 
       3.286515077389e+05       3.075848034055e-16 
       4.137477347171e+05       1.585098951981e-16 
       5.208775373077e+05       8.163101291821e-17 
       6.557459681497e+05       4.201184484220e-17 
       8.255352629854e+05       2.160807051776e-17 
       1.039287320905e+06       1.110701317644e-17 
       1.308385218443e+06       5.705905378918e-18 
       1.647159399914e+06       2.929586289688e-18 
       2.073650825828e+06       1.503316859902e-18 
       2.610571719824e+06       7.710187341946e-19 
       3.286515077398e+06       3.952362781820e-19 
       4.137477347182e+06       2.025037621572e-19 
       5.208775373092e+06       1.037051803897e-19 
       6.557459681515e+06       5.308419068308e-20 
       8.255352629877e+06       2.716022691104e-20 
       1.039287320908e+07       1.389027406099e-20 
       1.308385218447e+07       7.100729916875e-21 
       1.647159399919e+07       3.628400573524e-21 
       2.073650825834e+07       1.853329265179e-21 
       2.610571719831e+07       9.462805712367e-22 
       3.286515077407e+07       4.829719469834e-22 
       4.137477347194e+07       2.464126512956e-22 
       5.208775373107e+07       1.256745972709e-22 
       6.557459681533e+07       6.407365963882e-23 
       8.255352629900e+07       3.265600443128e-23 
       1.039287320911e+08       1.663802836990e-23 
       1.308385218450e+08       8.474218094353e-24 
       1.647159399923e+08       4.314792374578e-24 
       2.073650825840e+08       2.196271640272e-24 
       2.610571719838e+08       1.117587054267e-24 
       3.286515077417e+08       5.685242348921e-25 
       4.137477347205e+08       2.891292001022e-25 
       5.208775373121e+08       1.469986048833e-25 
       6.557459681552e+08       7.471633982080e-26 
       8.255352629923e+08       3.796660948994e-26 
       1.039287320914e+09       1.928743757390e-26 
       1.308385218454e+09       9.795718457302e-27 
       1.647159399928e+09       4.973814276708e-27 
       2.073650825845e+09       2.524856668276e-27 
       2.610571719846e+09       1.281386354573e-27 
       3.286515077426e+09       6.501624675618e-28 
       4.137477347217e+09       3.298103579668e-28 
       5.208775373136e+09       1.672666564557e-28 
       6.557459681570e+09       8.481236571279e-29 
       8.255352629947e+09       4.299477304793e-29 
       1.039287320916e+10       2.179117914407e-29 
       1.308385218458e+10       1.104221592037e-29 
       1.647159399933e+10       5.594276977184e-30 
       2.073650825851e+10       2.833646421936e-30 
       2.610571719853e+10       1.435036686968e-30 
       3.286515077435e+10       7.266037568943e-31 
       4.137477347229e+10       3.678333942301e-31 
       5.208775373150e+10       1.861766006580e-31 
       6.557459681588e+10       9.421519815948e-32 
       8.255352629970e+10       4.766945896169e-32 
       1.039287320919e+11       2.411483452520e-32 
       1.308385218461e+11       1.219704246783e-32 
       1.647159399937e+11       6.168112902236e-33 
       2.073650825857e+11       3.118738258410e-33 
       2.610571719860e+11       1.576651278116e-33 
       3.286515077444e+11       7.969364845165e-34 
       4.137477347240e+11       4.027581340547e-34 
       5.208775373165e+11       2.035160438685e-34 
       6.557459681607e+11       1.028224263126e-34 
       8.255352629993e+11       5.194132469265e-35 
       1.039287320922e+12       2.623464902715e-35 
