# Matter power spectrum P(k) at redshift z=11.5
# for k=1.03822e-05 to 10392.9 h/Mpc,
# number of wavenumbers equal to 152
#    1:k (h/Mpc)              2:P (Mpc/h)^3        
       1.038219230196e-05       5.398009408877e-01 
       1.307040571907e-05       6.733382105672e-01 
       1.645466590220e-05       8.399098401435e-01 
       2.071519704687e-05       1.047687426497e+00 
       2.607888797262e-05       1.306863559425e+00 
       3.283137478007e-05       1.630151232154e+00 
       4.133225201477e-05       2.033406324738e+00 
       5.203422238807e-05       2.536403034091e+00 
       6.550720484729e-05       3.163799145652e+00 
       8.246868483786e-05       3.946336125884e+00 
       1.038219230196e-04       4.922328269627e+00 
       1.307040571907e-04       6.139504802786e+00 
       1.645466590220e-04       7.657277294290e+00 
       2.071519704687e-04       9.549508234536e+00 
       2.607888797262e-04       1.190784743903e+01 
       3.283137478007e-04       1.484566577254e+01 
       4.133225201477e-04       1.850252149787e+01 
       5.203422238807e-04       2.304889238108e+01 
       6.550720484729e-04       2.869051502713e+01 
       8.246868483786e-04       3.567098877202e+01 
       1.038219230196e-03       4.427027193332e+01 
       1.307040571907e-03       5.479555203064e+01 
       1.645466590220e-03       6.755903067101e+01 
       2.071519704687e-03       8.284811405511e+01 
       2.607888797262e-03       1.008791856409e+02 
       3.283137478007e-03       1.217446696547e+02 
       4.133225201477e-03       1.453226608129e+02 
       5.203422238807e-03       1.711273097599e+02 
       6.550720484729e-03       1.981568937965e+02 
       8.246868483786e-03       2.247305762046e+02 
       1.038219230196e-02       2.483204000720e+02 
       1.307040571907e-02       2.654635261592e+02 
       1.645466590218e-02       2.719402381352e+02 
       2.071519688507e-02       2.636200285534e+02 
       2.607876417226e-02       2.386375927794e+02 
       3.281416722823e-02       2.008186382230e+02 
       4.075744376176e-02       1.630839145759e+02 
       4.746658777003e-02       1.414836060853e+02 
       5.233009061300e-02       1.308843544270e+02 
       5.633876997938e-02       1.242819855370e+02 
       5.991701375256e-02       1.192998223393e+02 
       6.325382191649e-02       1.149468623671e+02 
       6.644915140549e-02       1.107234454722e+02 
       6.956290348649e-02       1.063635165732e+02 
       7.263440849079e-02       1.017394161666e+02 
       7.569137574516e-02       9.681954358206e+01 
       7.875447272837e-02       9.164470025255e+01 
       8.183986863846e-02       8.630953370611e+01 
       8.496074110659e-02       8.094505299066e+01 
       8.812821588611e-02       7.570098999493e+01 
       9.135197802118e-02       7.072748339680e+01 
       9.464068332738e-02       6.615805857446e+01 
       9.800224345987e-02       6.209590109400e+01 
       1.014440281024e-01       5.860240773535e+01 
       1.049730111281e-01       5.569088492311e+01 
       1.085958778455e-01       5.332440698328e+01 
       1.123191045667e-01       5.141654573397e+01 
       1.161490180798e-01       4.983732261513e+01 
       1.200918402850e-01       4.842490504711e+01 
       1.241537217471e-01       4.700416074439e+01 
       1.283407669205e-01       4.541366746341e+01 
       1.326590531502e-01       4.353781710302e+01 
       1.371146451078e-01       4.133457748721e+01 
       1.417136060343e-01       3.884957665013e+01 
       1.464620069664e-01       3.620870400061e+01 
       1.513659349991e-01       3.358783737133e+01 
       1.564315015614e-01       3.117040324581e+01 
       1.616648516253e-01       2.909988693551e+01 
       1.670721747463e-01       2.744389475074e+01 
       1.726597188044e-01       2.617944951121e+01 
       1.784338073098e-01       2.519504376948e+01 
       1.844008611238e-01       2.432828723978e+01 
       1.905674254422e-01       2.339784645754e+01 
       1.969402028920e-01       2.226463337136e+01 
       2.035260936059e-01       2.090639946932e+01 
       2.103322431697e-01       1.942319316897e+01 
       2.173660993969e-01       1.797806311093e+01 
       2.246354789811e-01       1.671423355132e+01 
       2.321486452227e-01       1.570499315085e+01 
       2.399143982438e-01       1.492925209168e+01 
       2.479421794051e-01       1.427402792911e+01 
       2.562421920582e-01       1.359740027717e+01 
       2.648255413223e-01       1.281562860991e+01 
       2.737043963274e-01       1.194296228999e+01 
       2.828921793508e-01       1.107668392136e+01 
       2.924037875840e-01       1.032532463608e+01 
       3.022558549994e-01       9.719188598204e+00 
       3.124670640937e-01       9.202322594695e+00 
       3.230585203843e-01       8.688655990353e+00 
       3.340542067337e-01       8.129166860028e+00 
       3.454815403454e-01       7.556650007683e+00 
       3.573720632874e-01       7.033453272921e+00 
       3.697623087076e-01       6.587485293987e+00 
       3.826949011147e-01       6.182430744603e+00 
       3.962199727176e-01       5.773912956380e+00 
       4.103970129069e-01       5.360686052225e+00 
       4.252973211223e-01       4.975018693149e+00 
       4.410073157209e-01       4.627309813521e+00 
       4.576330822164e-01       4.297958567545e+00 
       4.753067575460e-01       3.970346066137e+00 
       4.941957055755e-01       3.657477214421e+00 
       5.145160626260e-01       3.367086066752e+00 
       5.365533585280e-01       3.083893423771e+00 
       5.606950447507e-01       2.809021018088e+00 
       5.874839753840e-01       2.545879159790e+00 
       6.177107211601e-01       2.287073572422e+00 
       6.525823218278e-01       2.033381461196e+00 
       6.940522612693e-01       1.779997821635e+00 
       7.455171781678e-01       1.523801232896e+00 
       8.134065949556e-01       1.258922759163e+00 
       9.109395868563e-01       9.798907991443e-01 
       1.065113380274e+00       6.904167380969e-01 
       1.310628484582e+00       4.308901170616e-01 
       1.647201751434e+00       2.542026625367e-01 
       2.073650984165e+00       1.482605428845e-01 
       2.610571719889e+00       8.590163093139e-02 
       3.286515077374e+00       4.950227409103e-02 
       4.137477347151e+00       2.840672954113e-02 
       5.208775373051e+00       1.625653261200e-02 
       6.557459681462e+00       9.293230289214e-03 
       8.255352629808e+00       5.318492650140e-03 
       1.039287320899e+01       3.055758120572e-03 
       1.308385218435e+01       1.768868107133e-03 
       1.647159399903e+01       1.036133966690e-03 
       2.073650825814e+01       6.172373478746e-04 
       2.610571719805e+01       3.758842196741e-04 
       3.286515077374e+01       2.350504729948e-04 
       4.137477347151e+01       1.513407686529e-04 
       5.208775373051e+01       1.003354057459e-04 
       6.557459681462e+01       6.828652126638e-05 
       8.255352629808e+01       4.743305985618e-05 
       1.039287320899e+02       3.336760137082e-05 
       1.308385218435e+02       2.356629741300e-05 
       1.647159399903e+02       1.656435124169e-05 
       2.073650825814e+02       1.149499228600e-05 
       2.610571719805e+02       7.824684718273e-06 
       3.286515077374e+02       5.201292770486e-06 
       4.137477347151e+02       3.369287651621e-06 
       5.208775373051e+02       2.127407727841e-06 
       6.557459681462e+02       1.312003839530e-06 
       8.255352629808e+02       7.927015440382e-07 
       1.039287320899e+03       4.707908391224e-07 
       1.308385218435e+03       2.757754424045e-07 
       1.647159399903e+03       1.598375960369e-07 
       2.073650825814e+03       9.190648815356e-08 
       2.610571719805e+03       5.253261765564e-08 
       3.286515077374e+03       2.989249074200e-08 
       4.137477347151e+03       1.695268286935e-08 
       5.208775373051e+03       9.590783607462e-09 
       6.557459681462e+03       5.416343206057e-09 
       8.255352629808e+03       3.054979472250e-09 
       1.039287320899e+04       1.721535836870e-09 
